(kicad_pcb (version 20171130) (host pcbnew 5.0.2+dfsg1-1)

  (general
    (thickness 1.6)
    (drawings 4)
    (tracks 49)
    (zones 0)
    (modules 6)
    (nets 14)
  )

  (page A4)
  (layers
    (0 F.Cu signal)
    (31 B.Cu signal)
    (32 B.Adhes user)
    (33 F.Adhes user)
    (34 B.Paste user)
    (35 F.Paste user)
    (36 B.SilkS user)
    (37 F.SilkS user)
    (38 B.Mask user)
    (39 F.Mask user)
    (40 Dwgs.User user)
    (41 Cmts.User user)
    (42 Eco1.User user)
    (43 Eco2.User user)
    (44 Edge.Cuts user)
    (45 Margin user)
    (46 B.CrtYd user)
    (47 F.CrtYd user)
    (48 B.Fab user)
    (49 F.Fab user)
  )

  (setup
    (last_trace_width 0.25)
    (trace_clearance 0.2)
    (zone_clearance 0.508)
    (zone_45_only no)
    (trace_min 0.2)
    (segment_width 0.2)
    (edge_width 0.15)
    (via_size 0.8)
    (via_drill 0.4)
    (via_min_size 0.4)
    (via_min_drill 0.3)
    (uvia_size 0.3)
    (uvia_drill 0.1)
    (uvias_allowed no)
    (uvia_min_size 0.2)
    (uvia_min_drill 0.1)
    (pcb_text_width 0.3)
    (pcb_text_size 1.5 1.5)
    (mod_edge_width 0.15)
    (mod_text_size 1 1)
    (mod_text_width 0.15)
    (pad_size 1.524 1.524)
    (pad_drill 0.762)
    (pad_to_mask_clearance 0.051)
    (solder_mask_min_width 0.25)
    (aux_axis_origin 0 0)
    (visible_elements FFFFFF7F)
    (pcbplotparams
      (layerselection 0x010fc_ffffffff)
      (usegerberextensions false)
      (usegerberattributes false)
      (usegerberadvancedattributes false)
      (creategerberjobfile false)
      (excludeedgelayer true)
      (linewidth 0.100000)
      (plotframeref false)
      (viasonmask false)
      (mode 1)
      (useauxorigin false)
      (hpglpennumber 1)
      (hpglpenspeed 20)
      (hpglpendiameter 15.000000)
      (psnegative false)
      (psa4output false)
      (plotreference true)
      (plotvalue true)
      (plotinvisibletext false)
      (padsonsilk false)
      (subtractmaskfromsilk false)
      (outputformat 1)
      (mirror false)
      (drillshape 1)
      (scaleselection 1)
      (outputdirectory ""))
  )

  (net 0 "")
  (net 1 "Net-(AE1-Pad1)")
  (net 2 GND)
  (net 3 "Net-(R1-Pad1)")
  (net 4 +5V)
  (net 5 "Net-(RTX1-Pad4)")
  (net 6 "Net-(RTX1-Pad5)")
  (net 7 "Net-(RTX1-Pad6)")
  (net 8 "Net-(RTX1-Pad9)")
  (net 9 +3V3)
  (net 10 "Net-(U1-PadD14)")
  (net 11 "Net-(U1-PadD15)")
  (net 12 "Net-(U1-PadD19)")
  (net 13 "Net-(U1-PadD22)")

  (net_class Default "This is the default net class."
    (clearance 0.2)
    (trace_width 0.25)
    (via_dia 0.8)
    (via_drill 0.4)
    (uvia_dia 0.3)
    (uvia_drill 0.1)
    (add_net +3V3)
    (add_net +5V)
    (add_net GND)
    (add_net "Net-(AE1-Pad1)")
    (add_net "Net-(R1-Pad1)")
    (add_net "Net-(RTX1-Pad4)")
    (add_net "Net-(RTX1-Pad5)")
    (add_net "Net-(RTX1-Pad6)")
    (add_net "Net-(RTX1-Pad9)")
    (add_net "Net-(U1-PadD14)")
    (add_net "Net-(U1-PadD15)")
    (add_net "Net-(U1-PadD19)")
    (add_net "Net-(U1-PadD22)")
  )

  (module Resistor_THT:R_Axial_DIN0204_L3.6mm_D1.6mm_P5.08mm_Horizontal (layer F.Cu) (tedit 5D9496BD) (tstamp 5DA1066F)
    (at 133.604 69.85 180)
    (descr "Resistor, Axial_DIN0204 series, Axial, Horizontal, pin pitch=5.08mm, 0.167W, length*diameter=3.6*1.6mm^2, http://cdn-reichelt.de/documents/datenblatt/B400/1_4W%23YAG.pdf")
    (tags "Resistor Axial_DIN0204 series Axial Horizontal pin pitch 5.08mm 0.167W length 3.6mm diameter 1.6mm")
    (path /5C2E6939)
    (fp_text reference R1 (at 16.002 -4.826 180) (layer F.SilkS)
      (effects (font (size 1 1) (thickness 0.15)))
    )
    (fp_text value 10k (at -2.794 0 180) (layer F.SilkS)
      (effects (font (size 1 1) (thickness 0.15)))
    )
    (fp_line (start 0.74 -0.8) (end 0.74 0.8) (layer F.Fab) (width 0.1))
    (fp_line (start 0.74 0.8) (end 4.34 0.8) (layer F.Fab) (width 0.1))
    (fp_line (start 4.34 0.8) (end 4.34 -0.8) (layer F.Fab) (width 0.1))
    (fp_line (start 4.34 -0.8) (end 0.74 -0.8) (layer F.Fab) (width 0.1))
    (fp_line (start 0 0) (end 0.74 0) (layer F.Fab) (width 0.1))
    (fp_line (start 5.08 0) (end 4.34 0) (layer F.Fab) (width 0.1))
    (fp_line (start 0.62 -0.92) (end 4.46 -0.92) (layer F.SilkS) (width 0.12))
    (fp_line (start 0.62 0.92) (end 4.46 0.92) (layer F.SilkS) (width 0.12))
    (fp_line (start -0.95 -1.05) (end -0.95 1.05) (layer F.CrtYd) (width 0.05))
    (fp_line (start -0.95 1.05) (end 6.03 1.05) (layer F.CrtYd) (width 0.05))
    (fp_line (start 6.03 1.05) (end 6.03 -1.05) (layer F.CrtYd) (width 0.05))
    (fp_line (start 6.03 -1.05) (end -0.95 -1.05) (layer F.CrtYd) (width 0.05))
    (fp_text user %R (at -11.176 -0.508 180) (layer F.Fab)
      (effects (font (size 0.72 0.72) (thickness 0.108)))
    )
    (pad 1 thru_hole circle (at 0 0 180) (size 1.4 1.4) (drill 0.7) (layers *.Cu *.Mask)
      (net 3 "Net-(R1-Pad1)"))
    (pad 2 thru_hole oval (at 5.08 0 180) (size 1.4 1.4) (drill 0.7) (layers *.Cu *.Mask)
      (net 2 GND))
    (model ${KISYS3DMOD}/Resistor_THT.3dshapes/R_Axial_DIN0204_L3.6mm_D1.6mm_P5.08mm_Horizontal.wrl
      (at (xyz 0 0 0))
      (scale (xyz 1 1 1))
      (rotate (xyz 0 0 0))
    )
  )

  (module Capacitor_THT:C_Disc_D4.3mm_W1.9mm_P5.00mm (layer F.Cu) (tedit 5D9496B6) (tstamp 5DA1065C)
    (at 128.604 66.548)
    (descr "C, Disc series, Radial, pin pitch=5.00mm, , diameter*width=4.3*1.9mm^2, Capacitor, http://www.vishay.com/docs/45233/krseries.pdf")
    (tags "C Disc series Radial pin pitch 5.00mm  diameter 4.3mm width 1.9mm Capacitor")
    (path /5C2E573F)
    (fp_text reference C1 (at -11.002 5.334) (layer F.SilkS)
      (effects (font (size 1 1) (thickness 0.15)))
    )
    (fp_text value 100nf (at 8.556 0) (layer F.SilkS)
      (effects (font (size 1 1) (thickness 0.15)))
    )
    (fp_line (start 0.35 -0.95) (end 0.35 0.95) (layer F.Fab) (width 0.1))
    (fp_line (start 0.35 0.95) (end 4.65 0.95) (layer F.Fab) (width 0.1))
    (fp_line (start 4.65 0.95) (end 4.65 -0.95) (layer F.Fab) (width 0.1))
    (fp_line (start 4.65 -0.95) (end 0.35 -0.95) (layer F.Fab) (width 0.1))
    (fp_line (start 0.23 -1.07) (end 4.77 -1.07) (layer F.SilkS) (width 0.12))
    (fp_line (start 0.23 1.07) (end 4.77 1.07) (layer F.SilkS) (width 0.12))
    (fp_line (start 0.23 -1.07) (end 0.23 -1.055) (layer F.SilkS) (width 0.12))
    (fp_line (start 0.23 1.055) (end 0.23 1.07) (layer F.SilkS) (width 0.12))
    (fp_line (start 4.77 -1.07) (end 4.77 -1.055) (layer F.SilkS) (width 0.12))
    (fp_line (start 4.77 1.055) (end 4.77 1.07) (layer F.SilkS) (width 0.12))
    (fp_line (start -1.05 -1.2) (end -1.05 1.2) (layer F.CrtYd) (width 0.05))
    (fp_line (start -1.05 1.2) (end 6.05 1.2) (layer F.CrtYd) (width 0.05))
    (fp_line (start 6.05 1.2) (end 6.05 -1.2) (layer F.CrtYd) (width 0.05))
    (fp_line (start 6.05 -1.2) (end -1.05 -1.2) (layer F.CrtYd) (width 0.05))
    (fp_text user %R (at -11.256 1.524) (layer F.Fab)
      (effects (font (size 0.86 0.86) (thickness 0.129)))
    )
    (pad 1 thru_hole circle (at 0 0) (size 1.6 1.6) (drill 0.8) (layers *.Cu *.Mask)
      (net 2 GND))
    (pad 2 thru_hole circle (at 5 0) (size 1.6 1.6) (drill 0.8) (layers *.Cu *.Mask)
      (net 4 +5V))
    (model ${KISYS3DMOD}/Capacitor_THT.3dshapes/C_Disc_D4.3mm_W1.9mm_P5.00mm.wrl
      (at (xyz 0 0 0))
      (scale (xyz 1 1 1))
      (rotate (xyz 0 0 0))
    )
  )

  (module usrlib:robotdyn_mega_pro (layer F.Cu) (tedit 5D94964D) (tstamp 5DA106BA)
    (at 139.013001 91.261001)
    (path /5D948413)
    (fp_text reference U1 (at 16.51 -27.94) (layer F.SilkS)
      (effects (font (size 1 1) (thickness 0.15)))
    )
    (fp_text value avr_mega_pro (at -11.43 -27.94) (layer F.Fab)
      (effects (font (size 1 1) (thickness 0.15)))
    )
    (fp_line (start -19.05 -26.67) (end -19.05 26.67) (layer F.SilkS) (width 0.15))
    (fp_line (start -19.05 26.67) (end 19.05 26.67) (layer F.SilkS) (width 0.15))
    (fp_line (start 19.05 26.67) (end 19.05 -26.67) (layer F.SilkS) (width 0.15))
    (fp_line (start 19.05 -26.67) (end -19.05 -26.67) (layer F.SilkS) (width 0.15))
    (pad GND thru_hole circle (at -17.78 -22.86) (size 1.524 1.524) (drill 0.762) (layers *.Cu *.Mask)
      (net 2 GND))
    (pad GND thru_hole circle (at -15.24 -22.86) (size 1.524 1.524) (drill 0.762) (layers *.Cu *.Mask)
      (net 2 GND))
    (pad 5V thru_hole circle (at -17.78 -20.32) (size 1.524 1.524) (drill 0.762) (layers *.Cu *.Mask)
      (net 4 +5V))
    (pad 5V thru_hole circle (at -15.24 -20.32) (size 1.524 1.524) (drill 0.762) (layers *.Cu *.Mask)
      (net 4 +5V))
    (pad 3V3 thru_hole circle (at -17.78 -17.78) (size 1.524 1.524) (drill 0.762) (layers *.Cu *.Mask)
      (net 9 +3V3))
    (pad 3V3 thru_hole circle (at -15.24 -17.78) (size 1.524 1.524) (drill 0.762) (layers *.Cu *.Mask)
      (net 9 +3V3))
    (pad D14 thru_hole circle (at -15.24 5.08) (size 1.524 1.524) (drill 0.762) (layers *.Cu *.Mask)
      (net 10 "Net-(U1-PadD14)"))
    (pad D15 thru_hole circle (at -17.78 5.08) (size 1.524 1.524) (drill 0.762) (layers *.Cu *.Mask)
      (net 11 "Net-(U1-PadD15)"))
    (pad D19 thru_hole circle (at -17.78 10.16) (size 1.524 1.524) (drill 0.762) (layers *.Cu *.Mask)
      (net 12 "Net-(U1-PadD19)"))
    (pad D18 thru_hole circle (at -15.24 10.16) (size 1.524 1.524) (drill 0.762) (layers *.Cu *.Mask))
    (pad D23 thru_hole circle (at -17.78 15.24) (size 1.524 1.524) (drill 0.762) (layers *.Cu *.Mask))
    (pad D22 thru_hole circle (at -15.24 15.24) (size 1.524 1.524) (drill 0.762) (layers *.Cu *.Mask)
      (net 13 "Net-(U1-PadD22)"))
    (pad D35 thru_hole circle (at 15.24 10.16) (size 1.524 1.524) (drill 0.762) (layers *.Cu *.Mask))
    (pad A9 thru_hole circle (at 15.24 -2.54) (size 1.524 1.524) (drill 0.762) (layers *.Cu *.Mask))
    (pad A5 thru_hole circle (at 15.24 -7.62) (size 1.524 1.524) (drill 0.762) (layers *.Cu *.Mask))
    (pad A12 thru_hole circle (at 17.78 2.54) (size 1.524 1.524) (drill 0.762) (layers *.Cu *.Mask))
    (pad A15 thru_hole circle (at 15.24 5.08) (size 1.524 1.524) (drill 0.762) (layers *.Cu *.Mask))
    (pad A10 thru_hole circle (at 17.78 0) (size 1.524 1.524) (drill 0.762) (layers *.Cu *.Mask))
    (pad A4 thru_hole circle (at 17.78 -7.62) (size 1.524 1.524) (drill 0.762) (layers *.Cu *.Mask))
    (pad D36 thru_hole circle (at 17.78 12.7) (size 1.524 1.524) (drill 0.762) (layers *.Cu *.Mask))
    (pad D33 thru_hole circle (at 15.24 7.62) (size 1.524 1.524) (drill 0.762) (layers *.Cu *.Mask))
    (pad A8 thru_hole circle (at 17.78 -2.54) (size 1.524 1.524) (drill 0.762) (layers *.Cu *.Mask))
    (pad D32 thru_hole circle (at 17.78 7.62) (size 1.524 1.524) (drill 0.762) (layers *.Cu *.Mask))
    (pad A14 thru_hole circle (at 17.78 5.08) (size 1.524 1.524) (drill 0.762) (layers *.Cu *.Mask))
    (pad A11 thru_hole circle (at 15.24 0) (size 1.524 1.524) (drill 0.762) (layers *.Cu *.Mask))
    (pad D37 thru_hole circle (at 15.24 12.7) (size 1.524 1.524) (drill 0.762) (layers *.Cu *.Mask))
    (pad D34 thru_hole circle (at 17.78 10.16) (size 1.524 1.524) (drill 0.762) (layers *.Cu *.Mask))
    (pad A7 thru_hole circle (at 15.24 -5.08) (size 1.524 1.524) (drill 0.762) (layers *.Cu *.Mask))
    (pad A13 thru_hole circle (at 15.24 2.54) (size 1.524 1.524) (drill 0.762) (layers *.Cu *.Mask))
    (pad A6 thru_hole circle (at 17.78 -5.08) (size 1.524 1.524) (drill 0.762) (layers *.Cu *.Mask))
    (pad D39 thru_hole circle (at 15.24 15.24) (size 1.524 1.524) (drill 0.762) (layers *.Cu *.Mask))
    (pad D44 thru_hole circle (at 17.78 22.86) (size 1.524 1.524) (drill 0.762) (layers *.Cu *.Mask))
    (pad D41 thru_hole circle (at 15.24 17.78) (size 1.524 1.524) (drill 0.762) (layers *.Cu *.Mask))
    (pad D42 thru_hole circle (at 17.78 20.32) (size 1.524 1.524) (drill 0.762) (layers *.Cu *.Mask))
    (pad D38 thru_hole circle (at 17.78 15.24) (size 1.524 1.524) (drill 0.762) (layers *.Cu *.Mask))
    (pad D46 thru_hole circle (at 17.78 25.4) (size 1.524 1.524) (drill 0.762) (layers *.Cu *.Mask))
    (pad D40 thru_hole circle (at 17.78 17.78) (size 1.524 1.524) (drill 0.762) (layers *.Cu *.Mask))
    (pad D43 thru_hole circle (at 15.24 20.32) (size 1.524 1.524) (drill 0.762) (layers *.Cu *.Mask))
    (pad D45 thru_hole circle (at 15.24 22.86) (size 1.524 1.524) (drill 0.762) (layers *.Cu *.Mask))
    (pad D47 thru_hole circle (at 15.24 25.4) (size 1.524 1.524) (drill 0.762) (layers *.Cu *.Mask))
    (pad I4 thru_hole circle (at -2.54 25.4 90) (size 1.524 1.524) (drill 0.762) (layers *.Cu *.Mask))
    (pad I6 thru_hole circle (at -5.08 25.4 90) (size 1.524 1.524) (drill 0.762) (layers *.Cu *.Mask))
    (pad I1 thru_hole circle (at 0 22.86 90) (size 1.524 1.524) (drill 0.762) (layers *.Cu *.Mask))
    (pad I5 thru_hole circle (at -5.08 22.86 90) (size 1.524 1.524) (drill 0.762) (layers *.Cu *.Mask))
    (pad I2 thru_hole circle (at 0 25.4 90) (size 1.524 1.524) (drill 0.762) (layers *.Cu *.Mask))
    (pad I3 thru_hole circle (at -2.54 22.86 90) (size 1.524 1.524) (drill 0.762) (layers *.Cu *.Mask))
    (pad A1 thru_hole circle (at 15.24 -12.7) (size 1.524 1.524) (drill 0.762) (layers *.Cu *.Mask))
    (pad A3 thru_hole circle (at 15.24 -10.16) (size 1.524 1.524) (drill 0.762) (layers *.Cu *.Mask))
    (pad A2 thru_hole circle (at 17.78 -10.16) (size 1.524 1.524) (drill 0.762) (layers *.Cu *.Mask))
    (pad A0 thru_hole circle (at 17.78 -12.7) (size 1.524 1.524) (drill 0.762) (layers *.Cu *.Mask))
  )

  (module usrlib:lvl_shift (layer F.Cu) (tedit 5D9496D5) (tstamp 5DAC46AC)
    (at 140.208 105.918)
    (path /5D949899)
    (fp_text reference U2 (at 8.89 15.24) (layer F.SilkS)
      (effects (font (size 1 1) (thickness 0.15)))
    )
    (fp_text value lvl_shift (at 4.572 7.366) (layer F.SilkS)
      (effects (font (size 1 1) (thickness 0.15)))
    )
    (fp_line (start -7.62 6.35) (end -7.62 -6.35) (layer F.SilkS) (width 0.15))
    (fp_line (start -7.62 -6.35) (end 7.62 -6.35) (layer F.SilkS) (width 0.15))
    (fp_line (start 7.62 -6.35) (end 7.62 6.35) (layer F.SilkS) (width 0.15))
    (fp_line (start 7.62 6.35) (end -7.62 6.35) (layer F.SilkS) (width 0.15))
    (pad H1 thru_hole circle (at -6.35 -5.08) (size 1.524 1.524) (drill 0.762) (layers *.Cu *.Mask)
      (net 8 "Net-(RTX1-Pad9)"))
    (pad H2 thru_hole circle (at -3.81 -5.08) (size 1.524 1.524) (drill 0.762) (layers *.Cu *.Mask)
      (net 7 "Net-(RTX1-Pad6)"))
    (pad 5V thru_hole circle (at -1.27 -5.08) (size 1.524 1.524) (drill 0.762) (layers *.Cu *.Mask)
      (net 4 +5V))
    (pad GND thru_hole circle (at 1.27 -5.08) (size 1.524 1.524) (drill 0.762) (layers *.Cu *.Mask)
      (net 2 GND))
    (pad H3 thru_hole circle (at 3.81 -5.08) (size 1.524 1.524) (drill 0.762) (layers *.Cu *.Mask)
      (net 6 "Net-(RTX1-Pad5)"))
    (pad H4 thru_hole circle (at 6.35 -5.08) (size 1.524 1.524) (drill 0.762) (layers *.Cu *.Mask)
      (net 5 "Net-(RTX1-Pad4)"))
    (pad L4 thru_hole circle (at 6.35 5.08) (size 1.524 1.524) (drill 0.762) (layers *.Cu *.Mask)
      (net 10 "Net-(U1-PadD14)"))
    (pad L3 thru_hole circle (at 3.81 5.08) (size 1.524 1.524) (drill 0.762) (layers *.Cu *.Mask)
      (net 11 "Net-(U1-PadD15)"))
    (pad GND thru_hole circle (at 1.27 5.08) (size 1.524 1.524) (drill 0.762) (layers *.Cu *.Mask)
      (net 2 GND))
    (pad 3V3 thru_hole circle (at -1.27 5.08) (size 1.524 1.524) (drill 0.762) (layers *.Cu *.Mask)
      (net 9 +3V3))
    (pad L2 thru_hole circle (at -3.81 5.08) (size 1.524 1.524) (drill 0.762) (layers *.Cu *.Mask)
      (net 13 "Net-(U1-PadD22)"))
    (pad L1 thru_hole circle (at -6.35 5.08) (size 1.524 1.524) (drill 0.762) (layers *.Cu *.Mask)
      (net 12 "Net-(U1-PadD19)"))
  )

  (module "usrlib:Aurel RTX MID 5v" (layer F.Cu) (tedit 5D68EA2A) (tstamp 5DA10680)
    (at 139.954 75.946 180)
    (path /5D68F5C0)
    (fp_text reference RTX1 (at -14.732 0.254 180) (layer F.SilkS)
      (effects (font (size 1 1) (thickness 0.15)))
    )
    (fp_text value RTX-MID (at -0.762 3.556 180) (layer F.Fab)
      (effects (font (size 1 1) (thickness 0.15)))
    )
    (fp_line (start 12.7 -1.27) (end -12.7 -1.27) (layer F.SilkS) (width 0.15))
    (fp_line (start -12.7 -1.27) (end -12.7 2.54) (layer F.SilkS) (width 0.15))
    (fp_line (start -12.7 2.54) (end 12.7 2.54) (layer F.SilkS) (width 0.15))
    (fp_line (start 12.7 2.54) (end 12.7 -1.27) (layer F.SilkS) (width 0.15))
    (pad 1 thru_hole circle (at -11.43 0 180) (size 1.524 1.524) (drill 0.762) (layers *.Cu *.Mask)
      (net 1 "Net-(AE1-Pad1)"))
    (pad 2 thru_hole circle (at -8.89 0 180) (size 1.524 1.524) (drill 0.762) (layers *.Cu *.Mask)
      (net 2 GND))
    (pad 4 thru_hole circle (at -3.81 0 180) (size 1.524 1.524) (drill 0.762) (layers *.Cu *.Mask)
      (net 5 "Net-(RTX1-Pad4)"))
    (pad 5 thru_hole circle (at -1.27 0 180) (size 1.524 1.524) (drill 0.762) (layers *.Cu *.Mask)
      (net 6 "Net-(RTX1-Pad5)"))
    (pad 6 thru_hole circle (at 1.27 0 180) (size 1.524 1.524) (drill 0.762) (layers *.Cu *.Mask)
      (net 7 "Net-(RTX1-Pad6)"))
    (pad 7 thru_hole circle (at 3.81 0 180) (size 1.524 1.524) (drill 0.762) (layers *.Cu *.Mask)
      (net 2 GND))
    (pad 8 thru_hole circle (at 6.35 0 180) (size 1.524 1.524) (drill 0.762) (layers *.Cu *.Mask)
      (net 3 "Net-(R1-Pad1)"))
    (pad 9 thru_hole circle (at 8.89 0 180) (size 1.524 1.524) (drill 0.762) (layers *.Cu *.Mask)
      (net 8 "Net-(RTX1-Pad9)"))
    (pad 10 thru_hole circle (at 11.43 0 180) (size 1.524 1.524) (drill 0.762) (layers *.Cu *.Mask)
      (net 4 +5V))
  )

  (module Connector_Coaxial:SMA_Molex_73251-1153_EdgeMount_Horizontal (layer F.Cu) (tedit 5A1B666F) (tstamp 5DA12A58)
    (at 151.384 69.284 270)
    (descr "Molex SMA RF Connectors, Edge Mount, (http://www.molex.com/pdm_docs/sd/732511150_sd.pdf)")
    (tags "sma edge")
    (path /5C2F2DFC)
    (attr smd)
    (fp_text reference AE1 (at -1.5 7 270) (layer F.SilkS)
      (effects (font (size 1 1) (thickness 0.15)))
    )
    (fp_text value Antenna_Shield (at -1.212 -8.128 270) (layer F.Fab)
      (effects (font (size 1 1) (thickness 0.15)))
    )
    (fp_text user %R (at -1.5 7 270) (layer F.Fab)
      (effects (font (size 1 1) (thickness 0.15)))
    )
    (fp_line (start 2.5 0.25) (end 2.5 -0.25) (layer F.Fab) (width 0.1))
    (fp_line (start 2 0) (end 2.5 0.25) (layer F.Fab) (width 0.1))
    (fp_line (start 2.5 -0.25) (end 2 0) (layer F.Fab) (width 0.1))
    (fp_line (start 2.5 0.25) (end 2 0) (layer F.SilkS) (width 0.12))
    (fp_line (start 2.5 -0.25) (end 2.5 0.25) (layer F.SilkS) (width 0.12))
    (fp_line (start 2 0) (end 2.5 -0.25) (layer F.SilkS) (width 0.12))
    (fp_line (start -4.76 -0.38) (end 0.49 -0.38) (layer F.Fab) (width 0.1))
    (fp_line (start -4.76 0.38) (end 0.49 0.38) (layer F.Fab) (width 0.1))
    (fp_line (start 0.49 -0.38) (end 0.49 0.38) (layer F.Fab) (width 0.1))
    (fp_line (start 0.49 3.75) (end 0.49 4.76) (layer F.Fab) (width 0.1))
    (fp_line (start 0.49 -4.76) (end 0.49 -3.75) (layer F.Fab) (width 0.1))
    (fp_line (start -14.29 -6.09) (end -14.29 6.09) (layer F.CrtYd) (width 0.05))
    (fp_line (start -14.29 6.09) (end 2.71 6.09) (layer F.CrtYd) (width 0.05))
    (fp_line (start 2.71 -6.09) (end 2.71 6.09) (layer B.CrtYd) (width 0.05))
    (fp_line (start -14.29 -6.09) (end 2.71 -6.09) (layer B.CrtYd) (width 0.05))
    (fp_line (start -14.29 -6.09) (end -14.29 6.09) (layer B.CrtYd) (width 0.05))
    (fp_line (start -14.29 6.09) (end 2.71 6.09) (layer B.CrtYd) (width 0.05))
    (fp_line (start 2.71 -6.09) (end 2.71 6.09) (layer F.CrtYd) (width 0.05))
    (fp_line (start 2.71 -6.09) (end -14.29 -6.09) (layer F.CrtYd) (width 0.05))
    (fp_line (start -4.76 -3.75) (end 0.49 -3.75) (layer F.Fab) (width 0.1))
    (fp_line (start -4.76 3.75) (end 0.49 3.75) (layer F.Fab) (width 0.1))
    (fp_line (start -13.79 -2.65) (end -5.91 -2.65) (layer F.Fab) (width 0.1))
    (fp_line (start -13.79 -2.65) (end -13.79 2.65) (layer F.Fab) (width 0.1))
    (fp_line (start -13.79 2.65) (end -5.91 2.65) (layer F.Fab) (width 0.1))
    (fp_line (start -4.76 -3.75) (end -4.76 3.75) (layer F.Fab) (width 0.1))
    (fp_line (start 0.49 -4.76) (end -5.91 -4.76) (layer F.Fab) (width 0.1))
    (fp_line (start -5.91 -4.76) (end -5.91 4.76) (layer F.Fab) (width 0.1))
    (fp_line (start -5.91 4.76) (end 0.49 4.76) (layer F.Fab) (width 0.1))
    (pad 1 smd rect (at -1.72 0 270) (size 5.08 2.29) (layers F.Cu F.Paste F.Mask)
      (net 1 "Net-(AE1-Pad1)"))
    (pad 2 smd rect (at -1.72 -4.38 270) (size 5.08 2.42) (layers F.Cu F.Paste F.Mask)
      (net 2 GND))
    (pad 2 smd rect (at -1.72 4.38 270) (size 5.08 2.42) (layers F.Cu F.Paste F.Mask)
      (net 2 GND))
    (pad 2 smd rect (at -1.72 -4.38 270) (size 5.08 2.42) (layers B.Cu B.Paste B.Mask)
      (net 2 GND))
    (pad 2 smd rect (at -1.72 4.38 270) (size 5.08 2.42) (layers B.Cu B.Paste B.Mask)
      (net 2 GND))
    (pad 2 thru_hole circle (at 1.72 -4.38 270) (size 0.97 0.97) (drill 0.46) (layers *.Cu)
      (net 2 GND))
    (pad 2 thru_hole circle (at 1.72 4.38 270) (size 0.97 0.97) (drill 0.46) (layers *.Cu)
      (net 2 GND))
    (pad 2 smd rect (at 1.27 -4.38 270) (size 0.95 0.46) (layers F.Cu)
      (net 2 GND))
    (pad 2 smd rect (at 1.27 4.38 270) (size 0.95 0.46) (layers F.Cu)
      (net 2 GND))
    (pad 2 smd rect (at 1.27 -4.38 270) (size 0.95 0.46) (layers B.Cu)
      (net 2 GND))
    (pad 2 smd rect (at 1.27 4.38 270) (size 0.95 0.46) (layers B.Cu)
      (net 2 GND))
    (model ${KISYS3DMOD}/Connector_Coaxial.3dshapes/SMA_Molex_73251-1153_EdgeMount_Horizontal.wrl
      (at (xyz 0 0 0))
      (scale (xyz 1 1 1))
      (rotate (xyz 0 0 0))
    )
  )

  (gr_line (start 157.988 64.516) (end 119.888 64.516) (layer Edge.Cuts) (width 0.15))
  (gr_line (start 157.988 117.856) (end 157.988 64.516) (layer Edge.Cuts) (width 0.15))
  (gr_line (start 119.888 117.856) (end 157.988 117.856) (layer Edge.Cuts) (width 0.15))
  (gr_line (start 119.888 64.516) (end 119.888 117.856) (layer Edge.Cuts) (width 0.15))

  (segment (start 151.384 74.86837) (end 151.384 67.564) (width 0.25) (layer F.Cu) (net 1))
  (segment (start 151.384 75.946) (end 151.384 74.86837) (width 0.25) (layer F.Cu) (net 1))
  (segment (start 146.519001 71.488999) (end 146.443001 71.488999) (width 0.25) (layer B.Cu) (net 2))
  (segment (start 146.519001 71.488999) (end 147.004 71.004) (width 0.25) (layer B.Cu) (net 2))
  (segment (start 147.004 71.004) (end 147.574 71.574) (width 0.25) (layer B.Cu) (net 2))
  (segment (start 155.764 71.004) (end 155.194 71.574) (width 0.25) (layer B.Cu) (net 2))
  (segment (start 156.248999 71.488999) (end 156.324999 71.488999) (width 0.25) (layer B.Cu) (net 2))
  (segment (start 155.764 71.004) (end 156.248999 71.488999) (width 0.25) (layer B.Cu) (net 2))
  (segment (start 156.324999 71.488999) (end 156.464 71.628) (width 0.25) (layer B.Cu) (net 2))
  (segment (start 133.604 74.86837) (end 133.604 69.85) (width 0.25) (layer B.Cu) (net 3))
  (segment (start 133.604 75.946) (end 133.604 74.86837) (width 0.25) (layer B.Cu) (net 3))
  (segment (start 143.764 75.946) (end 143.764 88.646) (width 0.25) (layer B.Cu) (net 5))
  (segment (start 146.558 91.44) (end 146.558 100.838) (width 0.25) (layer B.Cu) (net 5))
  (segment (start 143.764 88.646) (end 146.558 91.44) (width 0.25) (layer B.Cu) (net 5))
  (segment (start 141.224 75.946) (end 141.224 92.71) (width 0.25) (layer B.Cu) (net 6))
  (segment (start 144.018 95.504) (end 144.018 100.838) (width 0.25) (layer B.Cu) (net 6))
  (segment (start 141.224 92.71) (end 144.018 95.504) (width 0.25) (layer B.Cu) (net 6))
  (segment (start 136.398 78.232) (end 138.684 75.946) (width 0.25) (layer B.Cu) (net 7))
  (segment (start 136.398 100.838) (end 136.398 78.232) (width 0.25) (layer B.Cu) (net 7))
  (segment (start 131.064 98.044) (end 133.858 100.838) (width 0.25) (layer B.Cu) (net 8))
  (segment (start 131.064 75.946) (end 131.064 98.044) (width 0.25) (layer B.Cu) (net 8))
  (segment (start 123.773001 73.481001) (end 123.773001 91.515001) (width 0.25) (layer F.Cu) (net 9))
  (segment (start 123.773001 91.515001) (end 127.508 95.25) (width 0.25) (layer F.Cu) (net 9))
  (segment (start 127.508 99.568) (end 138.938 110.998) (width 0.25) (layer F.Cu) (net 9))
  (segment (start 127.508 95.25) (end 127.508 99.568) (width 0.25) (layer F.Cu) (net 9))
  (segment (start 122.310631 73.481001) (end 123.773001 73.481001) (width 0.25) (layer F.Cu) (net 9))
  (segment (start 121.233001 73.481001) (end 122.310631 73.481001) (width 0.25) (layer F.Cu) (net 9))
  (segment (start 143.764 108.204) (end 146.558 110.998) (width 0.25) (layer B.Cu) (net 10))
  (segment (start 127.508 100.076) (end 127.508 103.886) (width 0.25) (layer B.Cu) (net 10))
  (segment (start 123.773001 96.341001) (end 127.508 100.076) (width 0.25) (layer B.Cu) (net 10))
  (segment (start 139.954 108.204) (end 143.764 108.204) (width 0.25) (layer B.Cu) (net 10))
  (segment (start 128.778 105.156) (end 136.906 105.156) (width 0.25) (layer B.Cu) (net 10))
  (segment (start 127.508 103.886) (end 128.778 105.156) (width 0.25) (layer B.Cu) (net 10))
  (segment (start 136.906 105.156) (end 139.954 108.204) (width 0.25) (layer B.Cu) (net 10))
  (segment (start 121.995 97.103) (end 121.995 97.357) (width 0.25) (layer B.Cu) (net 11))
  (segment (start 121.233001 96.341001) (end 121.995 97.103) (width 0.25) (layer B.Cu) (net 11))
  (segment (start 121.995 97.357) (end 125.73 101.092) (width 0.25) (layer B.Cu) (net 11))
  (segment (start 125.73 101.092) (end 125.73 103.886) (width 0.25) (layer B.Cu) (net 11))
  (segment (start 125.73 103.886) (end 128.27 106.426) (width 0.25) (layer B.Cu) (net 11))
  (segment (start 128.27 106.426) (end 135.382 106.426) (width 0.25) (layer B.Cu) (net 11))
  (segment (start 135.382 106.426) (end 138.176 109.22) (width 0.25) (layer B.Cu) (net 11))
  (segment (start 142.24 109.22) (end 144.018 110.998) (width 0.25) (layer B.Cu) (net 11))
  (segment (start 138.176 109.22) (end 142.24 109.22) (width 0.25) (layer B.Cu) (net 11))
  (segment (start 130.81 110.998) (end 133.858 110.998) (width 0.25) (layer B.Cu) (net 12))
  (segment (start 121.233001 101.421001) (end 130.81 110.998) (width 0.25) (layer B.Cu) (net 12))
  (segment (start 123.773001 107.578631) (end 128.71637 112.522) (width 0.25) (layer B.Cu) (net 13))
  (segment (start 123.773001 106.501001) (end 123.773001 107.578631) (width 0.25) (layer B.Cu) (net 13))
  (segment (start 134.874 112.522) (end 136.398 110.998) (width 0.25) (layer B.Cu) (net 13))
  (segment (start 128.71637 112.522) (end 134.874 112.522) (width 0.25) (layer B.Cu) (net 13))

  (zone (net 2) (net_name GND) (layer F.Cu) (tstamp 0) (hatch edge 0.508)
    (connect_pads (clearance 0.508))
    (min_thickness 0.254)
    (fill yes (arc_segments 16) (thermal_gap 0.508) (thermal_bridge_width 0.508))
    (polygon
      (pts
        (xy 119.888 64.516) (xy 119.888 117.856) (xy 157.988 117.856) (xy 157.988 64.516)
      )
    )
    (filled_polygon
      (pts
        (xy 127.849995 65.294136) (xy 127.775861 65.540255) (xy 128.604 66.368395) (xy 129.432139 65.540255) (xy 129.358005 65.294136)
        (xy 129.168443 65.226) (xy 133.045755 65.226) (xy 132.791138 65.331466) (xy 132.387466 65.735138) (xy 132.169 66.262561)
        (xy 132.169 66.833439) (xy 132.387466 67.360862) (xy 132.791138 67.764534) (xy 133.318561 67.983) (xy 133.889439 67.983)
        (xy 134.211132 67.84975) (xy 145.159 67.84975) (xy 145.159 70.230309) (xy 145.255673 70.463698) (xy 145.434301 70.642327)
        (xy 145.66769 70.739) (xy 145.911871 70.739) (xy 145.870851 70.862564) (xy 145.902982 71.306968) (xy 146.011232 71.568308)
        (xy 146.2248 71.603595) (xy 146.337685 71.49071) (xy 146.414301 71.567327) (xy 146.559949 71.627656) (xy 146.404405 71.7832)
        (xy 146.439692 71.996768) (xy 146.862564 72.137149) (xy 147.306968 72.105018) (xy 147.568308 71.996768) (xy 147.603595 71.7832)
        (xy 147.448051 71.627656) (xy 147.593699 71.567327) (xy 147.670315 71.49071) (xy 147.7832 71.603595) (xy 147.996768 71.568308)
        (xy 148.137149 71.145436) (xy 148.107763 70.739) (xy 148.34031 70.739) (xy 148.573699 70.642327) (xy 148.752327 70.463698)
        (xy 148.849 70.230309) (xy 148.849 67.84975) (xy 148.69025 67.691) (xy 147.131 67.691) (xy 147.131 67.711)
        (xy 146.877 67.711) (xy 146.877 67.691) (xy 145.31775 67.691) (xy 145.159 67.84975) (xy 134.211132 67.84975)
        (xy 134.416862 67.764534) (xy 134.820534 67.360862) (xy 135.039 66.833439) (xy 135.039 66.262561) (xy 134.820534 65.735138)
        (xy 134.416862 65.331466) (xy 134.162245 65.226) (xy 145.159 65.226) (xy 145.159 67.27825) (xy 145.31775 67.437)
        (xy 146.877 67.437) (xy 146.877 67.417) (xy 147.131 67.417) (xy 147.131 67.437) (xy 148.69025 67.437)
        (xy 148.849 67.27825) (xy 148.849 65.226) (xy 149.59156 65.226) (xy 149.59156 70.104) (xy 149.640843 70.351765)
        (xy 149.781191 70.561809) (xy 149.991235 70.702157) (xy 150.239 70.75144) (xy 150.624001 70.75144) (xy 150.624 74.7487)
        (xy 150.592663 74.76168) (xy 150.19968 75.154663) (xy 150.120572 75.345647) (xy 150.066397 75.214857) (xy 149.824213 75.145392)
        (xy 149.023605 75.946) (xy 149.824213 76.746608) (xy 150.066397 76.677143) (xy 150.116535 76.536607) (xy 150.19968 76.737337)
        (xy 150.592663 77.13032) (xy 151.106119 77.343) (xy 151.661881 77.343) (xy 152.175337 77.13032) (xy 152.56832 76.737337)
        (xy 152.781 76.223881) (xy 152.781 75.668119) (xy 152.56832 75.154663) (xy 152.175337 74.76168) (xy 152.144 74.7487)
        (xy 152.144 70.75144) (xy 152.529 70.75144) (xy 152.776765 70.702157) (xy 152.986809 70.561809) (xy 153.127157 70.351765)
        (xy 153.17644 70.104) (xy 153.17644 65.226) (xy 153.919 65.226) (xy 153.919 67.27825) (xy 154.07775 67.437)
        (xy 155.637 67.437) (xy 155.637 67.417) (xy 155.891 67.417) (xy 155.891 67.437) (xy 155.911 67.437)
        (xy 155.911 67.691) (xy 155.891 67.691) (xy 155.891 67.711) (xy 155.637 67.711) (xy 155.637 67.691)
        (xy 154.07775 67.691) (xy 153.919 67.84975) (xy 153.919 70.230309) (xy 154.015673 70.463698) (xy 154.194301 70.642327)
        (xy 154.42769 70.739) (xy 154.671871 70.739) (xy 154.630851 70.862564) (xy 154.662982 71.306968) (xy 154.771232 71.568308)
        (xy 154.9848 71.603595) (xy 155.097685 71.49071) (xy 155.174301 71.567327) (xy 155.319949 71.627656) (xy 155.164405 71.7832)
        (xy 155.199692 71.996768) (xy 155.622564 72.137149) (xy 156.066968 72.105018) (xy 156.328308 71.996768) (xy 156.363595 71.7832)
        (xy 156.208051 71.627656) (xy 156.353699 71.567327) (xy 156.430315 71.49071) (xy 156.5432 71.603595) (xy 156.756768 71.568308)
        (xy 156.897149 71.145436) (xy 156.867763 70.739) (xy 157.10031 70.739) (xy 157.278001 70.665398) (xy 157.278001 77.249792)
        (xy 157.070882 77.164001) (xy 156.51512 77.164001) (xy 156.001664 77.376681) (xy 155.608681 77.769664) (xy 155.523001 77.976514)
        (xy 155.437321 77.769664) (xy 155.044338 77.376681) (xy 154.530882 77.164001) (xy 153.97512 77.164001) (xy 153.461664 77.376681)
        (xy 153.068681 77.769664) (xy 152.856001 78.28312) (xy 152.856001 78.838882) (xy 153.068681 79.352338) (xy 153.461664 79.745321)
        (xy 153.668514 79.831001) (xy 153.461664 79.916681) (xy 153.068681 80.309664) (xy 152.856001 80.82312) (xy 152.856001 81.378882)
        (xy 153.068681 81.892338) (xy 153.461664 82.285321) (xy 153.668514 82.371001) (xy 153.461664 82.456681) (xy 153.068681 82.849664)
        (xy 152.856001 83.36312) (xy 152.856001 83.918882) (xy 153.068681 84.432338) (xy 153.461664 84.825321) (xy 153.668514 84.911001)
        (xy 153.461664 84.996681) (xy 153.068681 85.389664) (xy 152.856001 85.90312) (xy 152.856001 86.458882) (xy 153.068681 86.972338)
        (xy 153.461664 87.365321) (xy 153.668514 87.451001) (xy 153.461664 87.536681) (xy 153.068681 87.929664) (xy 152.856001 88.44312)
        (xy 152.856001 88.998882) (xy 153.068681 89.512338) (xy 153.461664 89.905321) (xy 153.668514 89.991001) (xy 153.461664 90.076681)
        (xy 153.068681 90.469664) (xy 152.856001 90.98312) (xy 152.856001 91.538882) (xy 153.068681 92.052338) (xy 153.461664 92.445321)
        (xy 153.668514 92.531001) (xy 153.461664 92.616681) (xy 153.068681 93.009664) (xy 152.856001 93.52312) (xy 152.856001 94.078882)
        (xy 153.068681 94.592338) (xy 153.461664 94.985321) (xy 153.668514 95.071001) (xy 153.461664 95.156681) (xy 153.068681 95.549664)
        (xy 152.856001 96.06312) (xy 152.856001 96.618882) (xy 153.068681 97.132338) (xy 153.461664 97.525321) (xy 153.668514 97.611001)
        (xy 153.461664 97.696681) (xy 153.068681 98.089664) (xy 152.856001 98.60312) (xy 152.856001 99.158882) (xy 153.068681 99.672338)
        (xy 153.461664 100.065321) (xy 153.668514 100.151001) (xy 153.461664 100.236681) (xy 153.068681 100.629664) (xy 152.856001 101.14312)
        (xy 152.856001 101.698882) (xy 153.068681 102.212338) (xy 153.461664 102.605321) (xy 153.668514 102.691001) (xy 153.461664 102.776681)
        (xy 153.068681 103.169664) (xy 152.856001 103.68312) (xy 152.856001 104.238882) (xy 153.068681 104.752338) (xy 153.461664 105.145321)
        (xy 153.668514 105.231001) (xy 153.461664 105.316681) (xy 153.068681 105.709664) (xy 152.856001 106.22312) (xy 152.856001 106.778882)
        (xy 153.068681 107.292338) (xy 153.461664 107.685321) (xy 153.668514 107.771001) (xy 153.461664 107.856681) (xy 153.068681 108.249664)
        (xy 152.856001 108.76312) (xy 152.856001 109.318882) (xy 153.068681 109.832338) (xy 153.461664 110.225321) (xy 153.668514 110.311001)
        (xy 153.461664 110.396681) (xy 153.068681 110.789664) (xy 152.856001 111.30312) (xy 152.856001 111.858882) (xy 153.068681 112.372338)
        (xy 153.461664 112.765321) (xy 153.668514 112.851001) (xy 153.461664 112.936681) (xy 153.068681 113.329664) (xy 152.856001 113.84312)
        (xy 152.856001 114.398882) (xy 153.068681 114.912338) (xy 153.461664 115.305321) (xy 153.668514 115.391001) (xy 153.461664 115.476681)
        (xy 153.068681 115.869664) (xy 152.856001 116.38312) (xy 152.856001 116.938882) (xy 152.941792 117.146) (xy 140.32421 117.146)
        (xy 140.410001 116.938882) (xy 140.410001 116.38312) (xy 140.197321 115.869664) (xy 139.804338 115.476681) (xy 139.597488 115.391001)
        (xy 139.804338 115.305321) (xy 140.197321 114.912338) (xy 140.410001 114.398882) (xy 140.410001 113.84312) (xy 140.197321 113.329664)
        (xy 139.804338 112.936681) (xy 139.290882 112.724001) (xy 138.73512 112.724001) (xy 138.221664 112.936681) (xy 137.828681 113.329664)
        (xy 137.743001 113.536514) (xy 137.657321 113.329664) (xy 137.264338 112.936681) (xy 136.750882 112.724001) (xy 136.19512 112.724001)
        (xy 135.681664 112.936681) (xy 135.288681 113.329664) (xy 135.203001 113.536514) (xy 135.117321 113.329664) (xy 134.724338 112.936681)
        (xy 134.210882 112.724001) (xy 133.65512 112.724001) (xy 133.141664 112.936681) (xy 132.748681 113.329664) (xy 132.536001 113.84312)
        (xy 132.536001 114.398882) (xy 132.748681 114.912338) (xy 133.141664 115.305321) (xy 133.348514 115.391001) (xy 133.141664 115.476681)
        (xy 132.748681 115.869664) (xy 132.536001 116.38312) (xy 132.536001 116.938882) (xy 132.621792 117.146) (xy 120.598 117.146)
        (xy 120.598 107.750077) (xy 120.95512 107.898001) (xy 121.510882 107.898001) (xy 122.024338 107.685321) (xy 122.417321 107.292338)
        (xy 122.503001 107.085488) (xy 122.588681 107.292338) (xy 122.981664 107.685321) (xy 123.49512 107.898001) (xy 124.050882 107.898001)
        (xy 124.564338 107.685321) (xy 124.957321 107.292338) (xy 125.170001 106.778882) (xy 125.170001 106.22312) (xy 124.957321 105.709664)
        (xy 124.564338 105.316681) (xy 124.050882 105.104001) (xy 123.49512 105.104001) (xy 122.981664 105.316681) (xy 122.588681 105.709664)
        (xy 122.503001 105.916514) (xy 122.417321 105.709664) (xy 122.024338 105.316681) (xy 121.510882 105.104001) (xy 120.95512 105.104001)
        (xy 120.598 105.251925) (xy 120.598 102.670077) (xy 120.95512 102.818001) (xy 121.510882 102.818001) (xy 122.024338 102.605321)
        (xy 122.417321 102.212338) (xy 122.503001 102.005488) (xy 122.588681 102.212338) (xy 122.981664 102.605321) (xy 123.49512 102.818001)
        (xy 124.050882 102.818001) (xy 124.564338 102.605321) (xy 124.957321 102.212338) (xy 125.170001 101.698882) (xy 125.170001 101.14312)
        (xy 124.957321 100.629664) (xy 124.564338 100.236681) (xy 124.050882 100.024001) (xy 123.49512 100.024001) (xy 122.981664 100.236681)
        (xy 122.588681 100.629664) (xy 122.503001 100.836514) (xy 122.417321 100.629664) (xy 122.024338 100.236681) (xy 121.510882 100.024001)
        (xy 120.95512 100.024001) (xy 120.598 100.171925) (xy 120.598 97.590077) (xy 120.95512 97.738001) (xy 121.510882 97.738001)
        (xy 122.024338 97.525321) (xy 122.417321 97.132338) (xy 122.503001 96.925488) (xy 122.588681 97.132338) (xy 122.981664 97.525321)
        (xy 123.49512 97.738001) (xy 124.050882 97.738001) (xy 124.564338 97.525321) (xy 124.957321 97.132338) (xy 125.170001 96.618882)
        (xy 125.170001 96.06312) (xy 124.957321 95.549664) (xy 124.564338 95.156681) (xy 124.050882 94.944001) (xy 123.49512 94.944001)
        (xy 122.981664 95.156681) (xy 122.588681 95.549664) (xy 122.503001 95.756514) (xy 122.417321 95.549664) (xy 122.024338 95.156681)
        (xy 121.510882 94.944001) (xy 120.95512 94.944001) (xy 120.598 95.091925) (xy 120.598 74.730077) (xy 120.95512 74.878001)
        (xy 121.510882 74.878001) (xy 122.024338 74.665321) (xy 122.417321 74.272338) (xy 122.430301 74.241001) (xy 122.575701 74.241001)
        (xy 122.588681 74.272338) (xy 122.981664 74.665321) (xy 123.013001 74.678301) (xy 123.013002 91.440149) (xy 122.998113 91.515001)
        (xy 123.013002 91.589853) (xy 123.057098 91.811538) (xy 123.225073 92.06293) (xy 123.288529 92.10533) (xy 126.748 95.564802)
        (xy 126.748001 99.493148) (xy 126.733112 99.568) (xy 126.792097 99.864537) (xy 126.898648 100.024001) (xy 126.960072 100.115929)
        (xy 127.023528 100.158329) (xy 136.466198 109.601) (xy 136.120119 109.601) (xy 135.606663 109.81368) (xy 135.21368 110.206663)
        (xy 135.128 110.413513) (xy 135.04232 110.206663) (xy 134.649337 109.81368) (xy 134.135881 109.601) (xy 133.580119 109.601)
        (xy 133.066663 109.81368) (xy 132.67368 110.206663) (xy 132.461 110.720119) (xy 132.461 111.275881) (xy 132.67368 111.789337)
        (xy 133.066663 112.18232) (xy 133.580119 112.395) (xy 134.135881 112.395) (xy 134.649337 112.18232) (xy 135.04232 111.789337)
        (xy 135.128 111.582487) (xy 135.21368 111.789337) (xy 135.606663 112.18232) (xy 136.120119 112.395) (xy 136.675881 112.395)
        (xy 137.189337 112.18232) (xy 137.58232 111.789337) (xy 137.668 111.582487) (xy 137.75368 111.789337) (xy 138.146663 112.18232)
        (xy 138.660119 112.395) (xy 139.215881 112.395) (xy 139.729337 112.18232) (xy 139.933444 111.978213) (xy 140.677392 111.978213)
        (xy 140.746857 112.220397) (xy 141.270302 112.407144) (xy 141.825368 112.379362) (xy 142.209143 112.220397) (xy 142.278608 111.978213)
        (xy 141.478 111.177605) (xy 140.677392 111.978213) (xy 139.933444 111.978213) (xy 140.12232 111.789337) (xy 140.201428 111.598353)
        (xy 140.255603 111.729143) (xy 140.497787 111.798608) (xy 141.298395 110.998) (xy 141.657605 110.998) (xy 142.458213 111.798608)
        (xy 142.700397 111.729143) (xy 142.750535 111.588607) (xy 142.83368 111.789337) (xy 143.226663 112.18232) (xy 143.740119 112.395)
        (xy 144.295881 112.395) (xy 144.809337 112.18232) (xy 145.20232 111.789337) (xy 145.288 111.582487) (xy 145.37368 111.789337)
        (xy 145.766663 112.18232) (xy 146.280119 112.395) (xy 146.835881 112.395) (xy 147.349337 112.18232) (xy 147.74232 111.789337)
        (xy 147.955 111.275881) (xy 147.955 110.720119) (xy 147.74232 110.206663) (xy 147.349337 109.81368) (xy 146.835881 109.601)
        (xy 146.280119 109.601) (xy 145.766663 109.81368) (xy 145.37368 110.206663) (xy 145.288 110.413513) (xy 145.20232 110.206663)
        (xy 144.809337 109.81368) (xy 144.295881 109.601) (xy 143.740119 109.601) (xy 143.226663 109.81368) (xy 142.83368 110.206663)
        (xy 142.754572 110.397647) (xy 142.700397 110.266857) (xy 142.458213 110.197392) (xy 141.657605 110.998) (xy 141.298395 110.998)
        (xy 140.497787 110.197392) (xy 140.255603 110.266857) (xy 140.205465 110.407393) (xy 140.12232 110.206663) (xy 139.933444 110.017787)
        (xy 140.677392 110.017787) (xy 141.478 110.818395) (xy 142.278608 110.017787) (xy 142.209143 109.775603) (xy 141.685698 109.588856)
        (xy 141.130632 109.616638) (xy 140.746857 109.775603) (xy 140.677392 110.017787) (xy 139.933444 110.017787) (xy 139.729337 109.81368)
        (xy 139.215881 109.601) (xy 138.660119 109.601) (xy 138.628782 109.61398) (xy 129.574921 100.560119) (xy 132.461 100.560119)
        (xy 132.461 101.115881) (xy 132.67368 101.629337) (xy 133.066663 102.02232) (xy 133.580119 102.235) (xy 134.135881 102.235)
        (xy 134.649337 102.02232) (xy 135.04232 101.629337) (xy 135.128 101.422487) (xy 135.21368 101.629337) (xy 135.606663 102.02232)
        (xy 136.120119 102.235) (xy 136.675881 102.235) (xy 137.189337 102.02232) (xy 137.58232 101.629337) (xy 137.668 101.422487)
        (xy 137.75368 101.629337) (xy 138.146663 102.02232) (xy 138.660119 102.235) (xy 139.215881 102.235) (xy 139.729337 102.02232)
        (xy 139.933444 101.818213) (xy 140.677392 101.818213) (xy 140.746857 102.060397) (xy 141.270302 102.247144) (xy 141.825368 102.219362)
        (xy 142.209143 102.060397) (xy 142.278608 101.818213) (xy 141.478 101.017605) (xy 140.677392 101.818213) (xy 139.933444 101.818213)
        (xy 140.12232 101.629337) (xy 140.201428 101.438353) (xy 140.255603 101.569143) (xy 140.497787 101.638608) (xy 141.298395 100.838)
        (xy 141.657605 100.838) (xy 142.458213 101.638608) (xy 142.700397 101.569143) (xy 142.750535 101.428607) (xy 142.83368 101.629337)
        (xy 143.226663 102.02232) (xy 143.740119 102.235) (xy 144.295881 102.235) (xy 144.809337 102.02232) (xy 145.20232 101.629337)
        (xy 145.288 101.422487) (xy 145.37368 101.629337) (xy 145.766663 102.02232) (xy 146.280119 102.235) (xy 146.835881 102.235)
        (xy 147.349337 102.02232) (xy 147.74232 101.629337) (xy 147.955 101.115881) (xy 147.955 100.560119) (xy 147.74232 100.046663)
        (xy 147.349337 99.65368) (xy 146.835881 99.441) (xy 146.280119 99.441) (xy 145.766663 99.65368) (xy 145.37368 100.046663)
        (xy 145.288 100.253513) (xy 145.20232 100.046663) (xy 144.809337 99.65368) (xy 144.295881 99.441) (xy 143.740119 99.441)
        (xy 143.226663 99.65368) (xy 142.83368 100.046663) (xy 142.754572 100.237647) (xy 142.700397 100.106857) (xy 142.458213 100.037392)
        (xy 141.657605 100.838) (xy 141.298395 100.838) (xy 140.497787 100.037392) (xy 140.255603 100.106857) (xy 140.205465 100.247393)
        (xy 140.12232 100.046663) (xy 139.933444 99.857787) (xy 140.677392 99.857787) (xy 141.478 100.658395) (xy 142.278608 99.857787)
        (xy 142.209143 99.615603) (xy 141.685698 99.428856) (xy 141.130632 99.456638) (xy 140.746857 99.615603) (xy 140.677392 99.857787)
        (xy 139.933444 99.857787) (xy 139.729337 99.65368) (xy 139.215881 99.441) (xy 138.660119 99.441) (xy 138.146663 99.65368)
        (xy 137.75368 100.046663) (xy 137.668 100.253513) (xy 137.58232 100.046663) (xy 137.189337 99.65368) (xy 136.675881 99.441)
        (xy 136.120119 99.441) (xy 135.606663 99.65368) (xy 135.21368 100.046663) (xy 135.128 100.253513) (xy 135.04232 100.046663)
        (xy 134.649337 99.65368) (xy 134.135881 99.441) (xy 133.580119 99.441) (xy 133.066663 99.65368) (xy 132.67368 100.046663)
        (xy 132.461 100.560119) (xy 129.574921 100.560119) (xy 128.268 99.253199) (xy 128.268 95.324846) (xy 128.282888 95.249999)
        (xy 128.268 95.175152) (xy 128.268 95.175148) (xy 128.223904 94.953463) (xy 128.055929 94.702071) (xy 127.992473 94.659671)
        (xy 124.533001 91.2002) (xy 124.533001 75.668119) (xy 127.127 75.668119) (xy 127.127 76.223881) (xy 127.33968 76.737337)
        (xy 127.732663 77.13032) (xy 128.246119 77.343) (xy 128.801881 77.343) (xy 129.315337 77.13032) (xy 129.70832 76.737337)
        (xy 129.794 76.530487) (xy 129.87968 76.737337) (xy 130.272663 77.13032) (xy 130.786119 77.343) (xy 131.341881 77.343)
        (xy 131.855337 77.13032) (xy 132.24832 76.737337) (xy 132.334 76.530487) (xy 132.41968 76.737337) (xy 132.812663 77.13032)
        (xy 133.326119 77.343) (xy 133.881881 77.343) (xy 134.395337 77.13032) (xy 134.599444 76.926213) (xy 135.343392 76.926213)
        (xy 135.412857 77.168397) (xy 135.936302 77.355144) (xy 136.491368 77.327362) (xy 136.875143 77.168397) (xy 136.944608 76.926213)
        (xy 136.144 76.125605) (xy 135.343392 76.926213) (xy 134.599444 76.926213) (xy 134.78832 76.737337) (xy 134.867428 76.546353)
        (xy 134.921603 76.677143) (xy 135.163787 76.746608) (xy 135.964395 75.946) (xy 136.323605 75.946) (xy 137.124213 76.746608)
        (xy 137.366397 76.677143) (xy 137.416535 76.536607) (xy 137.49968 76.737337) (xy 137.892663 77.13032) (xy 138.406119 77.343)
        (xy 138.961881 77.343) (xy 139.475337 77.13032) (xy 139.86832 76.737337) (xy 139.954 76.530487) (xy 140.03968 76.737337)
        (xy 140.432663 77.13032) (xy 140.946119 77.343) (xy 141.501881 77.343) (xy 142.015337 77.13032) (xy 142.40832 76.737337)
        (xy 142.494 76.530487) (xy 142.57968 76.737337) (xy 142.972663 77.13032) (xy 143.486119 77.343) (xy 144.041881 77.343)
        (xy 144.555337 77.13032) (xy 144.759444 76.926213) (xy 148.043392 76.926213) (xy 148.112857 77.168397) (xy 148.636302 77.355144)
        (xy 149.191368 77.327362) (xy 149.575143 77.168397) (xy 149.644608 76.926213) (xy 148.844 76.125605) (xy 148.043392 76.926213)
        (xy 144.759444 76.926213) (xy 144.94832 76.737337) (xy 145.161 76.223881) (xy 145.161 75.738302) (xy 147.434856 75.738302)
        (xy 147.462638 76.293368) (xy 147.621603 76.677143) (xy 147.863787 76.746608) (xy 148.664395 75.946) (xy 147.863787 75.145392)
        (xy 147.621603 75.214857) (xy 147.434856 75.738302) (xy 145.161 75.738302) (xy 145.161 75.668119) (xy 144.94832 75.154663)
        (xy 144.759444 74.965787) (xy 148.043392 74.965787) (xy 148.844 75.766395) (xy 149.644608 74.965787) (xy 149.575143 74.723603)
        (xy 149.051698 74.536856) (xy 148.496632 74.564638) (xy 148.112857 74.723603) (xy 148.043392 74.965787) (xy 144.759444 74.965787)
        (xy 144.555337 74.76168) (xy 144.041881 74.549) (xy 143.486119 74.549) (xy 142.972663 74.76168) (xy 142.57968 75.154663)
        (xy 142.494 75.361513) (xy 142.40832 75.154663) (xy 142.015337 74.76168) (xy 141.501881 74.549) (xy 140.946119 74.549)
        (xy 140.432663 74.76168) (xy 140.03968 75.154663) (xy 139.954 75.361513) (xy 139.86832 75.154663) (xy 139.475337 74.76168)
        (xy 138.961881 74.549) (xy 138.406119 74.549) (xy 137.892663 74.76168) (xy 137.49968 75.154663) (xy 137.420572 75.345647)
        (xy 137.366397 75.214857) (xy 137.124213 75.145392) (xy 136.323605 75.946) (xy 135.964395 75.946) (xy 135.163787 75.145392)
        (xy 134.921603 75.214857) (xy 134.871465 75.355393) (xy 134.78832 75.154663) (xy 134.599444 74.965787) (xy 135.343392 74.965787)
        (xy 136.144 75.766395) (xy 136.944608 74.965787) (xy 136.875143 74.723603) (xy 136.351698 74.536856) (xy 135.796632 74.564638)
        (xy 135.412857 74.723603) (xy 135.343392 74.965787) (xy 134.599444 74.965787) (xy 134.395337 74.76168) (xy 133.881881 74.549)
        (xy 133.326119 74.549) (xy 132.812663 74.76168) (xy 132.41968 75.154663) (xy 132.334 75.361513) (xy 132.24832 75.154663)
        (xy 131.855337 74.76168) (xy 131.341881 74.549) (xy 130.786119 74.549) (xy 130.272663 74.76168) (xy 129.87968 75.154663)
        (xy 129.794 75.361513) (xy 129.70832 75.154663) (xy 129.315337 74.76168) (xy 128.801881 74.549) (xy 128.246119 74.549)
        (xy 127.732663 74.76168) (xy 127.33968 75.154663) (xy 127.127 75.668119) (xy 124.533001 75.668119) (xy 124.533001 74.678301)
        (xy 124.564338 74.665321) (xy 124.957321 74.272338) (xy 125.170001 73.758882) (xy 125.170001 73.20312) (xy 124.957321 72.689664)
        (xy 124.564338 72.296681) (xy 124.357488 72.211001) (xy 124.564338 72.125321) (xy 124.957321 71.732338) (xy 125.170001 71.218882)
        (xy 125.170001 70.66312) (xy 124.971266 70.183329) (xy 127.231284 70.183329) (xy 127.374203 70.528396) (xy 127.721337 70.916764)
        (xy 128.190669 71.142727) (xy 128.397 71.020206) (xy 128.397 69.977) (xy 128.651 69.977) (xy 128.651 71.020206)
        (xy 128.857331 71.142727) (xy 129.326663 70.916764) (xy 129.673797 70.528396) (xy 129.816716 70.183329) (xy 129.693374 69.977)
        (xy 128.651 69.977) (xy 128.397 69.977) (xy 127.354626 69.977) (xy 127.231284 70.183329) (xy 124.971266 70.183329)
        (xy 124.957321 70.149664) (xy 124.564338 69.756681) (xy 124.373354 69.677573) (xy 124.504144 69.623398) (xy 124.534756 69.516671)
        (xy 127.231284 69.516671) (xy 127.354626 69.723) (xy 128.397 69.723) (xy 128.397 68.679794) (xy 128.651 68.679794)
        (xy 128.651 69.723) (xy 129.693374 69.723) (xy 129.776197 69.584452) (xy 132.269 69.584452) (xy 132.269 70.115548)
        (xy 132.472242 70.606217) (xy 132.847783 70.981758) (xy 133.338452 71.185) (xy 133.869548 71.185) (xy 134.360217 70.981758)
        (xy 134.735758 70.606217) (xy 134.939 70.115548) (xy 134.939 69.584452) (xy 134.735758 69.093783) (xy 134.360217 68.718242)
        (xy 133.869548 68.515) (xy 133.338452 68.515) (xy 132.847783 68.718242) (xy 132.472242 69.093783) (xy 132.269 69.584452)
        (xy 129.776197 69.584452) (xy 129.816716 69.516671) (xy 129.673797 69.171604) (xy 129.326663 68.783236) (xy 128.857331 68.557273)
        (xy 128.651 68.679794) (xy 128.397 68.679794) (xy 128.190669 68.557273) (xy 127.721337 68.783236) (xy 127.374203 69.171604)
        (xy 127.231284 69.516671) (xy 124.534756 69.516671) (xy 124.573609 69.381214) (xy 123.773001 68.580606) (xy 122.972393 69.381214)
        (xy 123.041858 69.623398) (xy 123.182394 69.673536) (xy 122.981664 69.756681) (xy 122.588681 70.149664) (xy 122.503001 70.356514)
        (xy 122.417321 70.149664) (xy 122.024338 69.756681) (xy 121.833354 69.677573) (xy 121.964144 69.623398) (xy 122.033609 69.381214)
        (xy 121.233001 68.580606) (xy 121.218859 68.594749) (xy 121.039254 68.415144) (xy 121.053396 68.401001) (xy 121.412606 68.401001)
        (xy 122.213214 69.201609) (xy 122.455398 69.132144) (xy 122.499454 69.008657) (xy 122.550604 69.132144) (xy 122.792788 69.201609)
        (xy 123.593396 68.401001) (xy 123.952606 68.401001) (xy 124.753214 69.201609) (xy 124.995398 69.132144) (xy 125.182145 68.608699)
        (xy 125.154363 68.053633) (xy 124.995398 67.669858) (xy 124.753214 67.600393) (xy 123.952606 68.401001) (xy 123.593396 68.401001)
        (xy 122.792788 67.600393) (xy 122.550604 67.669858) (xy 122.506548 67.793345) (xy 122.455398 67.669858) (xy 122.213214 67.600393)
        (xy 121.412606 68.401001) (xy 121.053396 68.401001) (xy 121.039254 68.386859) (xy 121.218859 68.207254) (xy 121.233001 68.221396)
        (xy 122.033609 67.420788) (xy 122.972393 67.420788) (xy 123.773001 68.221396) (xy 124.438652 67.555745) (xy 127.775861 67.555745)
        (xy 127.849995 67.801864) (xy 128.387223 67.994965) (xy 128.957454 67.967778) (xy 129.358005 67.801864) (xy 129.432139 67.555745)
        (xy 128.604 66.727605) (xy 127.775861 67.555745) (xy 124.438652 67.555745) (xy 124.573609 67.420788) (xy 124.504144 67.178604)
        (xy 123.980699 66.991857) (xy 123.425633 67.019639) (xy 123.041858 67.178604) (xy 122.972393 67.420788) (xy 122.033609 67.420788)
        (xy 121.964144 67.178604) (xy 121.440699 66.991857) (xy 120.885633 67.019639) (xy 120.598 67.138781) (xy 120.598 66.331223)
        (xy 127.157035 66.331223) (xy 127.184222 66.901454) (xy 127.350136 67.302005) (xy 127.596255 67.376139) (xy 128.424395 66.548)
        (xy 128.783605 66.548) (xy 129.611745 67.376139) (xy 129.857864 67.302005) (xy 130.050965 66.764777) (xy 130.023778 66.194546)
        (xy 129.857864 65.793995) (xy 129.611745 65.719861) (xy 128.783605 66.548) (xy 128.424395 66.548) (xy 127.596255 65.719861)
        (xy 127.350136 65.793995) (xy 127.157035 66.331223) (xy 120.598 66.331223) (xy 120.598 65.226) (xy 128.01449 65.226)
      )
    )
  )
  (zone (net 4) (net_name +5V) (layer B.Cu) (tstamp 0) (hatch edge 0.508)
    (connect_pads (clearance 0.508))
    (min_thickness 0.254)
    (fill yes (arc_segments 16) (thermal_gap 0.508) (thermal_bridge_width 0.508))
    (polygon
      (pts
        (xy 119.888 64.516) (xy 119.888 117.856) (xy 157.988 117.856) (xy 157.988 64.516)
      )
    )
    (filled_polygon
      (pts
        (xy 127.791138 65.331466) (xy 127.387466 65.735138) (xy 127.169 66.262561) (xy 127.169 66.833439) (xy 127.387466 67.360862)
        (xy 127.791138 67.764534) (xy 128.318561 67.983) (xy 128.889439 67.983) (xy 129.416862 67.764534) (xy 129.625651 67.555745)
        (xy 132.775861 67.555745) (xy 132.849995 67.801864) (xy 133.387223 67.994965) (xy 133.957454 67.967778) (xy 134.358005 67.801864)
        (xy 134.432139 67.555745) (xy 133.604 66.727605) (xy 132.775861 67.555745) (xy 129.625651 67.555745) (xy 129.820534 67.360862)
        (xy 130.039 66.833439) (xy 130.039 66.331223) (xy 132.157035 66.331223) (xy 132.184222 66.901454) (xy 132.350136 67.302005)
        (xy 132.596255 67.376139) (xy 133.424395 66.548) (xy 133.783605 66.548) (xy 134.611745 67.376139) (xy 134.857864 67.302005)
        (xy 135.050965 66.764777) (xy 135.023778 66.194546) (xy 134.857864 65.793995) (xy 134.611745 65.719861) (xy 133.783605 66.548)
        (xy 133.424395 66.548) (xy 132.596255 65.719861) (xy 132.350136 65.793995) (xy 132.157035 66.331223) (xy 130.039 66.331223)
        (xy 130.039 66.262561) (xy 129.820534 65.735138) (xy 129.416862 65.331466) (xy 129.162245 65.226) (xy 133.01449 65.226)
        (xy 132.849995 65.294136) (xy 132.775861 65.540255) (xy 133.604 66.368395) (xy 134.432139 65.540255) (xy 134.358005 65.294136)
        (xy 134.168443 65.226) (xy 135.87834 65.226) (xy 135.915165 74.549) (xy 135.866119 74.549) (xy 135.352663 74.76168)
        (xy 134.95968 75.154663) (xy 134.874 75.361513) (xy 134.78832 75.154663) (xy 134.395337 74.76168) (xy 134.364 74.7487)
        (xy 134.364 70.977975) (xy 134.735758 70.606217) (xy 134.939 70.115548) (xy 134.939 69.584452) (xy 134.735758 69.093783)
        (xy 134.360217 68.718242) (xy 133.869548 68.515) (xy 133.338452 68.515) (xy 132.847783 68.718242) (xy 132.472242 69.093783)
        (xy 132.269 69.584452) (xy 132.269 70.115548) (xy 132.472242 70.606217) (xy 132.844001 70.977976) (xy 132.844 74.7487)
        (xy 132.812663 74.76168) (xy 132.41968 75.154663) (xy 132.334 75.361513) (xy 132.24832 75.154663) (xy 131.855337 74.76168)
        (xy 131.341881 74.549) (xy 130.786119 74.549) (xy 130.272663 74.76168) (xy 129.87968 75.154663) (xy 129.800572 75.345647)
        (xy 129.746397 75.214857) (xy 129.504213 75.145392) (xy 128.703605 75.946) (xy 129.504213 76.746608) (xy 129.746397 76.677143)
        (xy 129.796535 76.536607) (xy 129.87968 76.737337) (xy 130.272663 77.13032) (xy 130.304 77.1433) (xy 130.304001 97.969148)
        (xy 130.289112 98.044) (xy 130.304001 98.118852) (xy 130.348097 98.340537) (xy 130.516072 98.591929) (xy 130.579528 98.634329)
        (xy 132.47398 100.528782) (xy 132.461 100.560119) (xy 132.461 101.115881) (xy 132.67368 101.629337) (xy 133.066663 102.02232)
        (xy 133.580119 102.235) (xy 134.135881 102.235) (xy 134.649337 102.02232) (xy 135.04232 101.629337) (xy 135.128 101.422487)
        (xy 135.21368 101.629337) (xy 135.606663 102.02232) (xy 136.120119 102.235) (xy 136.675881 102.235) (xy 137.189337 102.02232)
        (xy 137.393444 101.818213) (xy 138.137392 101.818213) (xy 138.206857 102.060397) (xy 138.730302 102.247144) (xy 139.285368 102.219362)
        (xy 139.669143 102.060397) (xy 139.738608 101.818213) (xy 138.938 101.017605) (xy 138.137392 101.818213) (xy 137.393444 101.818213)
        (xy 137.58232 101.629337) (xy 137.661428 101.438353) (xy 137.715603 101.569143) (xy 137.957787 101.638608) (xy 138.631395 100.965)
        (xy 139.244605 100.965) (xy 139.918213 101.638608) (xy 140.160397 101.569143) (xy 140.210535 101.428607) (xy 140.29368 101.629337)
        (xy 140.686663 102.02232) (xy 141.200119 102.235) (xy 141.755881 102.235) (xy 142.269337 102.02232) (xy 142.66232 101.629337)
        (xy 142.748 101.422487) (xy 142.83368 101.629337) (xy 143.226663 102.02232) (xy 143.740119 102.235) (xy 144.295881 102.235)
        (xy 144.809337 102.02232) (xy 145.20232 101.629337) (xy 145.288 101.422487) (xy 145.37368 101.629337) (xy 145.766663 102.02232)
        (xy 146.280119 102.235) (xy 146.835881 102.235) (xy 147.349337 102.02232) (xy 147.74232 101.629337) (xy 147.955 101.115881)
        (xy 147.955 100.965) (xy 152.929781 100.965) (xy 152.856001 101.14312) (xy 152.856001 101.698882) (xy 153.068681 102.212338)
        (xy 153.461664 102.605321) (xy 153.668514 102.691001) (xy 153.461664 102.776681) (xy 153.068681 103.169664) (xy 152.856001 103.68312)
        (xy 152.856001 104.238882) (xy 153.068681 104.752338) (xy 153.461664 105.145321) (xy 153.668514 105.231001) (xy 153.461664 105.316681)
        (xy 153.068681 105.709664) (xy 152.856001 106.22312) (xy 152.856001 106.778882) (xy 153.068681 107.292338) (xy 153.461664 107.685321)
        (xy 153.668514 107.771001) (xy 153.461664 107.856681) (xy 153.068681 108.249664) (xy 152.856001 108.76312) (xy 152.856001 109.318882)
        (xy 153.068681 109.832338) (xy 153.461664 110.225321) (xy 153.668514 110.311001) (xy 153.461664 110.396681) (xy 153.068681 110.789664)
        (xy 152.856001 111.30312) (xy 152.856001 111.858882) (xy 153.068681 112.372338) (xy 153.461664 112.765321) (xy 153.668514 112.851001)
        (xy 153.461664 112.936681) (xy 153.068681 113.329664) (xy 152.856001 113.84312) (xy 152.856001 114.398882) (xy 153.068681 114.912338)
        (xy 153.461664 115.305321) (xy 153.668514 115.391001) (xy 153.461664 115.476681) (xy 153.068681 115.869664) (xy 152.856001 116.38312)
        (xy 152.856001 116.938882) (xy 152.941792 117.146) (xy 140.32421 117.146) (xy 140.410001 116.938882) (xy 140.410001 116.38312)
        (xy 140.197321 115.869664) (xy 139.804338 115.476681) (xy 139.597488 115.391001) (xy 139.804338 115.305321) (xy 140.197321 114.912338)
        (xy 140.410001 114.398882) (xy 140.410001 113.84312) (xy 140.197321 113.329664) (xy 139.804338 112.936681) (xy 139.290882 112.724001)
        (xy 138.73512 112.724001) (xy 138.221664 112.936681) (xy 137.828681 113.329664) (xy 137.743001 113.536514) (xy 137.657321 113.329664)
        (xy 137.264338 112.936681) (xy 136.750882 112.724001) (xy 136.19512 112.724001) (xy 135.681664 112.936681) (xy 135.288681 113.329664)
        (xy 135.203001 113.536514) (xy 135.117321 113.329664) (xy 135.049614 113.261957) (xy 135.170537 113.237904) (xy 135.421929 113.069929)
        (xy 135.464331 113.00647) (xy 136.088782 112.38202) (xy 136.120119 112.395) (xy 136.675881 112.395) (xy 137.189337 112.18232)
        (xy 137.58232 111.789337) (xy 137.668 111.582487) (xy 137.75368 111.789337) (xy 138.146663 112.18232) (xy 138.660119 112.395)
        (xy 139.215881 112.395) (xy 139.729337 112.18232) (xy 140.12232 111.789337) (xy 140.208 111.582487) (xy 140.29368 111.789337)
        (xy 140.686663 112.18232) (xy 141.200119 112.395) (xy 141.755881 112.395) (xy 142.269337 112.18232) (xy 142.66232 111.789337)
        (xy 142.748 111.582487) (xy 142.83368 111.789337) (xy 143.226663 112.18232) (xy 143.740119 112.395) (xy 144.295881 112.395)
        (xy 144.809337 112.18232) (xy 145.20232 111.789337) (xy 145.288 111.582487) (xy 145.37368 111.789337) (xy 145.766663 112.18232)
        (xy 146.280119 112.395) (xy 146.835881 112.395) (xy 147.349337 112.18232) (xy 147.74232 111.789337) (xy 147.955 111.275881)
        (xy 147.955 110.720119) (xy 147.74232 110.206663) (xy 147.349337 109.81368) (xy 146.835881 109.601) (xy 146.280119 109.601)
        (xy 146.248782 109.61398) (xy 144.354331 107.71953) (xy 144.311929 107.656071) (xy 144.060537 107.488096) (xy 143.838852 107.444)
        (xy 143.838847 107.444) (xy 143.764 107.429112) (xy 143.689153 107.444) (xy 140.268802 107.444) (xy 137.496331 104.67153)
        (xy 137.453929 104.608071) (xy 137.202537 104.440096) (xy 136.980852 104.396) (xy 136.980847 104.396) (xy 136.906 104.381112)
        (xy 136.831153 104.396) (xy 129.092802 104.396) (xy 128.268 103.571199) (xy 128.268 100.150846) (xy 128.282888 100.075999)
        (xy 128.268 100.001152) (xy 128.268 100.001148) (xy 128.223904 99.779463) (xy 128.055929 99.528071) (xy 127.992473 99.485671)
        (xy 125.157021 96.650219) (xy 125.170001 96.618882) (xy 125.170001 96.06312) (xy 124.957321 95.549664) (xy 124.564338 95.156681)
        (xy 124.050882 94.944001) (xy 123.49512 94.944001) (xy 122.981664 95.156681) (xy 122.588681 95.549664) (xy 122.503001 95.756514)
        (xy 122.417321 95.549664) (xy 122.024338 95.156681) (xy 121.510882 94.944001) (xy 120.95512 94.944001) (xy 120.598 95.091925)
        (xy 120.598 76.926213) (xy 127.723392 76.926213) (xy 127.792857 77.168397) (xy 128.316302 77.355144) (xy 128.871368 77.327362)
        (xy 129.255143 77.168397) (xy 129.324608 76.926213) (xy 128.524 76.125605) (xy 127.723392 76.926213) (xy 120.598 76.926213)
        (xy 120.598 75.738302) (xy 127.114856 75.738302) (xy 127.142638 76.293368) (xy 127.301603 76.677143) (xy 127.543787 76.746608)
        (xy 128.344395 75.946) (xy 127.543787 75.145392) (xy 127.301603 75.214857) (xy 127.114856 75.738302) (xy 120.598 75.738302)
        (xy 120.598 74.965787) (xy 127.723392 74.965787) (xy 128.524 75.766395) (xy 129.324608 74.965787) (xy 129.255143 74.723603)
        (xy 128.731698 74.536856) (xy 128.176632 74.564638) (xy 127.792857 74.723603) (xy 127.723392 74.965787) (xy 120.598 74.965787)
        (xy 120.598 74.730077) (xy 120.95512 74.878001) (xy 121.510882 74.878001) (xy 122.024338 74.665321) (xy 122.417321 74.272338)
        (xy 122.503001 74.065488) (xy 122.588681 74.272338) (xy 122.981664 74.665321) (xy 123.49512 74.878001) (xy 124.050882 74.878001)
        (xy 124.564338 74.665321) (xy 124.957321 74.272338) (xy 125.170001 73.758882) (xy 125.170001 73.20312) (xy 124.957321 72.689664)
        (xy 124.564338 72.296681) (xy 124.373354 72.217573) (xy 124.504144 72.163398) (xy 124.573609 71.921214) (xy 123.773001 71.120606)
        (xy 122.972393 71.921214) (xy 123.041858 72.163398) (xy 123.182394 72.213536) (xy 122.981664 72.296681) (xy 122.588681 72.689664)
        (xy 122.503001 72.896514) (xy 122.417321 72.689664) (xy 122.024338 72.296681) (xy 121.833354 72.217573) (xy 121.964144 72.163398)
        (xy 122.033609 71.921214) (xy 121.233001 71.120606) (xy 121.218859 71.134749) (xy 121.039254 70.955144) (xy 121.053396 70.941001)
        (xy 121.412606 70.941001) (xy 122.213214 71.741609) (xy 122.455398 71.672144) (xy 122.499454 71.548657) (xy 122.550604 71.672144)
        (xy 122.792788 71.741609) (xy 123.593396 70.941001) (xy 123.952606 70.941001) (xy 124.753214 71.741609) (xy 124.995398 71.672144)
        (xy 125.182145 71.148699) (xy 125.154363 70.593633) (xy 124.995398 70.209858) (xy 124.753214 70.140393) (xy 123.952606 70.941001)
        (xy 123.593396 70.941001) (xy 122.792788 70.140393) (xy 122.550604 70.209858) (xy 122.506548 70.333345) (xy 122.455398 70.209858)
        (xy 122.213214 70.140393) (xy 121.412606 70.941001) (xy 121.053396 70.941001) (xy 121.039254 70.926859) (xy 121.218859 70.747254)
        (xy 121.233001 70.761396) (xy 122.033609 69.960788) (xy 121.964144 69.718604) (xy 121.823608 69.668466) (xy 122.024338 69.585321)
        (xy 122.417321 69.192338) (xy 122.503001 68.985488) (xy 122.588681 69.192338) (xy 122.981664 69.585321) (xy 123.172648 69.664429)
        (xy 123.041858 69.718604) (xy 122.972393 69.960788) (xy 123.773001 70.761396) (xy 124.573609 69.960788) (xy 124.541832 69.85)
        (xy 127.162846 69.85) (xy 127.266458 70.370891) (xy 127.561519 70.812481) (xy 128.003109 71.107542) (xy 128.392515 71.185)
        (xy 128.655485 71.185) (xy 129.044891 71.107542) (xy 129.486481 70.812481) (xy 129.781542 70.370891) (xy 129.885154 69.85)
        (xy 129.781542 69.329109) (xy 129.486481 68.887519) (xy 129.044891 68.592458) (xy 128.655485 68.515) (xy 128.392515 68.515)
        (xy 128.003109 68.592458) (xy 127.561519 68.887519) (xy 127.266458 69.329109) (xy 127.162846 69.85) (xy 124.541832 69.85)
        (xy 124.504144 69.718604) (xy 124.363608 69.668466) (xy 124.564338 69.585321) (xy 124.957321 69.192338) (xy 125.170001 68.678882)
        (xy 125.170001 68.12312) (xy 124.957321 67.609664) (xy 124.564338 67.216681) (xy 124.050882 67.004001) (xy 123.49512 67.004001)
        (xy 122.981664 67.216681) (xy 122.588681 67.609664) (xy 122.503001 67.816514) (xy 122.417321 67.609664) (xy 122.024338 67.216681)
        (xy 121.510882 67.004001) (xy 120.95512 67.004001) (xy 120.598 67.151925) (xy 120.598 65.226) (xy 128.045755 65.226)
      )
    )
  )
  (zone (net 2) (net_name GND) (layer B.Cu) (tstamp 0) (hatch edge 0.508)
    (priority 1)
    (connect_pads (clearance 0.508))
    (min_thickness 0.254)
    (fill yes (arc_segments 16) (thermal_gap 0.508) (thermal_bridge_width 0.508))
    (polygon
      (pts
        (xy 136.510541 64.516) (xy 136.652 100.33) (xy 157.988 100.33) (xy 157.846541 64.516)
      )
    )
    (filled_polygon
      (pts
        (xy 145.159 67.27825) (xy 145.31775 67.437) (xy 146.877 67.437) (xy 146.877 67.417) (xy 147.131 67.417)
        (xy 147.131 67.437) (xy 148.69025 67.437) (xy 148.849 67.27825) (xy 148.849 65.226) (xy 153.919 65.226)
        (xy 153.919 67.27825) (xy 154.07775 67.437) (xy 155.637 67.437) (xy 155.637 67.417) (xy 155.891 67.417)
        (xy 155.891 67.437) (xy 155.911 67.437) (xy 155.911 67.691) (xy 155.891 67.691) (xy 155.891 67.711)
        (xy 155.637 67.711) (xy 155.637 67.691) (xy 154.07775 67.691) (xy 153.919 67.84975) (xy 153.919 70.230309)
        (xy 154.015673 70.463698) (xy 154.194301 70.642327) (xy 154.42769 70.739) (xy 154.671871 70.739) (xy 154.630851 70.862564)
        (xy 154.662982 71.306968) (xy 154.771232 71.568308) (xy 154.9848 71.603595) (xy 155.097685 71.49071) (xy 155.174301 71.567327)
        (xy 155.319949 71.627656) (xy 155.164405 71.7832) (xy 155.199692 71.996768) (xy 155.622564 72.137149) (xy 156.066968 72.105018)
        (xy 156.328308 71.996768) (xy 156.363595 71.7832) (xy 156.208051 71.627656) (xy 156.353699 71.567327) (xy 156.430315 71.49071)
        (xy 156.5432 71.603595) (xy 156.756768 71.568308) (xy 156.897149 71.145436) (xy 156.867763 70.739) (xy 157.10031 70.739)
        (xy 157.278001 70.665398) (xy 157.278001 77.249792) (xy 157.070882 77.164001) (xy 156.51512 77.164001) (xy 156.001664 77.376681)
        (xy 155.608681 77.769664) (xy 155.523001 77.976514) (xy 155.437321 77.769664) (xy 155.044338 77.376681) (xy 154.530882 77.164001)
        (xy 153.97512 77.164001) (xy 153.461664 77.376681) (xy 153.068681 77.769664) (xy 152.856001 78.28312) (xy 152.856001 78.838882)
        (xy 153.068681 79.352338) (xy 153.461664 79.745321) (xy 153.668514 79.831001) (xy 153.461664 79.916681) (xy 153.068681 80.309664)
        (xy 152.856001 80.82312) (xy 152.856001 81.378882) (xy 153.068681 81.892338) (xy 153.461664 82.285321) (xy 153.668514 82.371001)
        (xy 153.461664 82.456681) (xy 153.068681 82.849664) (xy 152.856001 83.36312) (xy 152.856001 83.918882) (xy 153.068681 84.432338)
        (xy 153.461664 84.825321) (xy 153.668514 84.911001) (xy 153.461664 84.996681) (xy 153.068681 85.389664) (xy 152.856001 85.90312)
        (xy 152.856001 86.458882) (xy 153.068681 86.972338) (xy 153.461664 87.365321) (xy 153.668514 87.451001) (xy 153.461664 87.536681)
        (xy 153.068681 87.929664) (xy 152.856001 88.44312) (xy 152.856001 88.998882) (xy 153.068681 89.512338) (xy 153.461664 89.905321)
        (xy 153.668514 89.991001) (xy 153.461664 90.076681) (xy 153.068681 90.469664) (xy 152.856001 90.98312) (xy 152.856001 91.538882)
        (xy 153.068681 92.052338) (xy 153.461664 92.445321) (xy 153.668514 92.531001) (xy 153.461664 92.616681) (xy 153.068681 93.009664)
        (xy 152.856001 93.52312) (xy 152.856001 94.078882) (xy 153.068681 94.592338) (xy 153.461664 94.985321) (xy 153.668514 95.071001)
        (xy 153.461664 95.156681) (xy 153.068681 95.549664) (xy 152.856001 96.06312) (xy 152.856001 96.618882) (xy 153.068681 97.132338)
        (xy 153.461664 97.525321) (xy 153.668514 97.611001) (xy 153.461664 97.696681) (xy 153.068681 98.089664) (xy 152.856001 98.60312)
        (xy 152.856001 99.158882) (xy 153.068681 99.672338) (xy 153.461664 100.065321) (xy 153.668514 100.151001) (xy 153.542977 100.203)
        (xy 147.807077 100.203) (xy 147.74232 100.046663) (xy 147.349337 99.65368) (xy 147.318 99.6407) (xy 147.318 91.514848)
        (xy 147.332888 91.44) (xy 147.318 91.365152) (xy 147.318 91.365148) (xy 147.273904 91.143463) (xy 147.273904 91.143462)
        (xy 147.148329 90.955527) (xy 147.105929 90.892071) (xy 147.042473 90.849671) (xy 144.524 88.331199) (xy 144.524 77.1433)
        (xy 144.555337 77.13032) (xy 144.759444 76.926213) (xy 148.043392 76.926213) (xy 148.112857 77.168397) (xy 148.636302 77.355144)
        (xy 149.191368 77.327362) (xy 149.575143 77.168397) (xy 149.644608 76.926213) (xy 148.844 76.125605) (xy 148.043392 76.926213)
        (xy 144.759444 76.926213) (xy 144.94832 76.737337) (xy 145.161 76.223881) (xy 145.161 75.738302) (xy 147.434856 75.738302)
        (xy 147.462638 76.293368) (xy 147.621603 76.677143) (xy 147.863787 76.746608) (xy 148.664395 75.946) (xy 149.023605 75.946)
        (xy 149.824213 76.746608) (xy 150.066397 76.677143) (xy 150.116535 76.536607) (xy 150.19968 76.737337) (xy 150.592663 77.13032)
        (xy 151.106119 77.343) (xy 151.661881 77.343) (xy 152.175337 77.13032) (xy 152.56832 76.737337) (xy 152.781 76.223881)
        (xy 152.781 75.668119) (xy 152.56832 75.154663) (xy 152.175337 74.76168) (xy 151.661881 74.549) (xy 151.106119 74.549)
        (xy 150.592663 74.76168) (xy 150.19968 75.154663) (xy 150.120572 75.345647) (xy 150.066397 75.214857) (xy 149.824213 75.145392)
        (xy 149.023605 75.946) (xy 148.664395 75.946) (xy 147.863787 75.145392) (xy 147.621603 75.214857) (xy 147.434856 75.738302)
        (xy 145.161 75.738302) (xy 145.161 75.668119) (xy 144.94832 75.154663) (xy 144.759444 74.965787) (xy 148.043392 74.965787)
        (xy 148.844 75.766395) (xy 149.644608 74.965787) (xy 149.575143 74.723603) (xy 149.051698 74.536856) (xy 148.496632 74.564638)
        (xy 148.112857 74.723603) (xy 148.043392 74.965787) (xy 144.759444 74.965787) (xy 144.555337 74.76168) (xy 144.041881 74.549)
        (xy 143.486119 74.549) (xy 142.972663 74.76168) (xy 142.57968 75.154663) (xy 142.494 75.361513) (xy 142.40832 75.154663)
        (xy 142.015337 74.76168) (xy 141.501881 74.549) (xy 140.946119 74.549) (xy 140.432663 74.76168) (xy 140.03968 75.154663)
        (xy 139.954 75.361513) (xy 139.86832 75.154663) (xy 139.475337 74.76168) (xy 138.961881 74.549) (xy 138.406119 74.549)
        (xy 137.892663 74.76168) (xy 137.49968 75.154663) (xy 137.420572 75.345647) (xy 137.366397 75.214857) (xy 137.124213 75.145392)
        (xy 136.681276 75.588329) (xy 136.679863 75.230532) (xy 136.944608 74.965787) (xy 136.875143 74.723603) (xy 136.677582 74.65312)
        (xy 136.650711 67.84975) (xy 145.159 67.84975) (xy 145.159 70.230309) (xy 145.255673 70.463698) (xy 145.434301 70.642327)
        (xy 145.66769 70.739) (xy 145.911871 70.739) (xy 145.870851 70.862564) (xy 145.902982 71.306968) (xy 146.011232 71.568308)
        (xy 146.2248 71.603595) (xy 146.337685 71.49071) (xy 146.414301 71.567327) (xy 146.559949 71.627656) (xy 146.404405 71.7832)
        (xy 146.439692 71.996768) (xy 146.862564 72.137149) (xy 147.306968 72.105018) (xy 147.568308 71.996768) (xy 147.603595 71.7832)
        (xy 147.448051 71.627656) (xy 147.593699 71.567327) (xy 147.670315 71.49071) (xy 147.7832 71.603595) (xy 147.996768 71.568308)
        (xy 148.137149 71.145436) (xy 148.107763 70.739) (xy 148.34031 70.739) (xy 148.573699 70.642327) (xy 148.752327 70.463698)
        (xy 148.849 70.230309) (xy 148.849 67.84975) (xy 148.69025 67.691) (xy 147.131 67.691) (xy 147.131 67.711)
        (xy 146.877 67.711) (xy 146.877 67.691) (xy 145.31775 67.691) (xy 145.159 67.84975) (xy 136.650711 67.84975)
        (xy 136.640347 65.226) (xy 145.159 65.226)
      )
    )
  )
)
