EESchema Schematic File Version 4
LIBS:rflink_shield-cache
EELAYER 26 0
EELAYER END
$Descr A4 11693 8268
encoding utf-8
Sheet 1 1
Title ""
Date ""
Rev ""
Comp ""
Comment1 ""
Comment2 ""
Comment3 ""
Comment4 ""
$EndDescr
$Comp
L power:GND #PWR08
U 1 1 5C2E4DBF
P 4150 6500
F 0 "#PWR08" H 4150 6250 50  0001 C CNN
F 1 "GND" V 4155 6372 50  0000 R CNN
F 2 "" H 4150 6500 50  0001 C CNN
F 3 "" H 4150 6500 50  0001 C CNN
	1    4150 6500
	1    0    0    1   
$EndComp
$Comp
L power:GND #PWR010
U 1 1 5C2E55DC
P 5300 6800
F 0 "#PWR010" H 5300 6550 50  0001 C CNN
F 1 "GND" H 5305 6627 50  0000 C CNN
F 2 "" H 5300 6800 50  0001 C CNN
F 3 "" H 5300 6800 50  0001 C CNN
	1    5300 6800
	0    -1   1    0   
$EndComp
$Comp
L Device:C_Small C1
U 1 1 5C2E573F
P 5100 6800
F 0 "C1" H 5008 6754 50  0000 R CNN
F 1 "100nf" H 5008 6845 50  0000 R CNN
F 2 "Capacitor_THT:C_Disc_D4.3mm_W1.9mm_P5.00mm" H 5100 6800 50  0001 C CNN
F 3 "~" H 5100 6800 50  0001 C CNN
	1    5100 6800
	0    1    -1   0   
$EndComp
$Comp
L Device:R R1
U 1 1 5C2E6939
P 4700 6550
F 0 "R1" V 4700 6550 50  0000 C CNN
F 1 "10k" V 4750 6750 50  0000 C CNN
F 2 "Resistor_THT:R_Axial_DIN0204_L3.6mm_D1.6mm_P5.08mm_Horizontal" V 4630 6550 50  0001 C CNN
F 3 "~" H 4700 6550 50  0001 C CNN
	1    4700 6550
	1    0    0    1   
$EndComp
Wire Wire Line
	4700 6700 4700 6800
Wire Wire Line
	4900 6800 5000 6800
Wire Wire Line
	5000 6600 5000 6800
Connection ~ 5000 6800
Wire Wire Line
	5300 6800 5200 6800
$Comp
L Device:Antenna_Shield AE1
U 1 1 5C2F2DFC
P 4000 6450
F 0 "AE1" H 3921 6491 50  0000 R CNN
F 1 "Antenna_Shield" H 3921 6400 50  0000 R CNN
F 2 "Connector_Coaxial:SMA_Molex_73251-1153_EdgeMount_Horizontal" H 4000 6550 50  0001 C CNN
F 3 "~" H 4000 6550 50  0001 C CNN
	1    4000 6450
	1    0    0    -1  
$EndComp
$Comp
L usrlib:RTX-MID RTX1
U 1 1 5D68F5C0
P 4150 6700
F 0 "RTX1" V 4379 7128 50  0000 L CNN
F 1 "RTX-MID" V 4470 7128 50  0000 L CNN
F 2 "usrlib:Aurel RTX MID 5v" H 4150 6700 50  0001 C CNN
F 3 "" H 4150 6700 50  0001 C CNN
	1    4150 6700
	1    0    0    1   
$EndComp
$Comp
L power:GND #PWR0101
U 1 1 5D947497
P 2450 2600
F 0 "#PWR0101" H 2450 2350 50  0001 C CNN
F 1 "GND" H 2455 2427 50  0000 C CNN
F 2 "" H 2450 2600 50  0001 C CNN
F 3 "" H 2450 2600 50  0001 C CNN
	1    2450 2600
	1    0    0    -1  
$EndComp
$Comp
L power:+5V #PWR0102
U 1 1 5D9474F2
P 2700 2750
F 0 "#PWR0102" H 2700 2600 50  0001 C CNN
F 1 "+5V" H 2715 2923 50  0000 C CNN
F 2 "" H 2700 2750 50  0001 C CNN
F 3 "" H 2700 2750 50  0001 C CNN
	1    2700 2750
	-1   0    0    1   
$EndComp
$Comp
L power:+3V3 #PWR0103
U 1 1 5D9475A4
P 2900 2900
F 0 "#PWR0103" H 2900 2750 50  0001 C CNN
F 1 "+3V3" H 2915 3073 50  0000 C CNN
F 2 "" H 2900 2900 50  0001 C CNN
F 3 "" H 2900 2900 50  0001 C CNN
	1    2900 2900
	-1   0    0    1   
$EndComp
Wire Wire Line
	3300 2900 2900 2900
Wire Wire Line
	3300 2750 2700 2750
Wire Wire Line
	3300 2600 2450 2600
$Comp
L usrlib:avr_mega_pro U1
U 1 1 5D948413
P 4800 3000
F 0 "U1" H 6227 2990 50  0000 L CNN
F 1 "avr_mega_pro" H 6227 2899 50  0000 L CNN
F 2 "usrlib:robotdyn_mega_pro" H 4800 3000 50  0001 C CNN
F 3 "" H 4800 3000 50  0001 C CNN
	1    4800 3000
	1    0    0    -1  
$EndComp
$Comp
L power:+5V #PWR0105
U 1 1 5D948A59
P 5000 6600
F 0 "#PWR0105" H 5000 6450 50  0001 C CNN
F 1 "+5V" H 5015 6773 50  0000 C CNN
F 2 "" H 5000 6600 50  0001 C CNN
F 3 "" H 5000 6600 50  0001 C CNN
	1    5000 6600
	-1   0    0    -1  
$EndComp
$Comp
L usrlib:lvl_shift U2
U 1 1 5D949899
P 4650 4900
F 0 "U2" H 5278 4854 50  0000 L CNN
F 1 "lvl_shift" H 5278 4945 50  0000 L CNN
F 2 "usrlib:lvl_shift" H 5250 4900 50  0001 C CNN
F 3 "" H 5250 4900 50  0001 C CNN
	1    4650 4900
	-1   0    0    1   
$EndComp
$Comp
L power:GND #PWR0104
U 1 1 5D949D65
P 4700 6250
F 0 "#PWR0104" H 4700 6000 50  0001 C CNN
F 1 "GND" H 4705 6077 50  0000 C CNN
F 2 "" H 4700 6250 50  0001 C CNN
F 3 "" H 4700 6250 50  0001 C CNN
	1    4700 6250
	1    0    0    1   
$EndComp
Wire Wire Line
	4400 4250 4400 4200
Wire Wire Line
	4400 4200 3800 4200
Wire Wire Line
	3800 4200 3800 3800
Wire Wire Line
	4550 4250 4550 4100
Wire Wire Line
	4550 4100 3950 4100
Wire Wire Line
	3950 4100 3950 3800
Wire Wire Line
	4700 4250 4700 4100
Wire Wire Line
	4850 4250 4850 4200
$Comp
L power:GND #PWR0106
U 1 1 5D94E359
P 5900 4900
F 0 "#PWR0106" H 5900 4650 50  0001 C CNN
F 1 "GND" H 5905 4727 50  0000 C CNN
F 2 "" H 5900 4900 50  0001 C CNN
F 3 "" H 5900 4900 50  0001 C CNN
	1    5900 4900
	1    0    0    -1  
$EndComp
$Comp
L power:+3V3 #PWR0107
U 1 1 5D94E394
P 5700 5050
F 0 "#PWR0107" H 5700 4900 50  0001 C CNN
F 1 "+3V3" H 5715 5223 50  0000 C CNN
F 2 "" H 5700 5050 50  0001 C CNN
F 3 "" H 5700 5050 50  0001 C CNN
	1    5700 5050
	-1   0    0    1   
$EndComp
$Comp
L power:+5V #PWR0108
U 1 1 5D94E3DB
P 6150 4800
F 0 "#PWR0108" H 6150 4650 50  0001 C CNN
F 1 "+5V" H 6165 4973 50  0000 C CNN
F 2 "" H 6150 4800 50  0001 C CNN
F 3 "" H 6150 4800 50  0001 C CNN
	1    6150 4800
	-1   0    0    1   
$EndComp
Wire Wire Line
	5300 4750 6150 4750
Wire Wire Line
	6150 4750 6150 4800
Wire Wire Line
	5300 4900 5900 4900
Wire Wire Line
	5300 5050 5700 5050
Wire Wire Line
	4000 6800 4000 6650
Wire Wire Line
	4100 6800 4100 6650
Wire Wire Line
	4100 6650 4150 6650
Wire Wire Line
	4150 6650 4150 6500
Connection ~ 4100 6650
Wire Wire Line
	4700 6400 4700 6350
Wire Wire Line
	4600 6800 4600 6350
Wire Wire Line
	4600 6350 4700 6350
Connection ~ 4700 6350
Wire Wire Line
	4700 6350 4700 6250
Wire Wire Line
	4400 6800 4400 5800
Wire Wire Line
	4400 5800 4550 5800
Wire Wire Line
	4550 5800 4550 5550
Wire Wire Line
	4300 6800 4300 5700
Wire Wire Line
	4300 5700 4400 5700
Wire Wire Line
	4400 5700 4400 5550
Wire Wire Line
	4500 6800 4500 5900
Wire Wire Line
	4500 5900 4700 5900
Wire Wire Line
	4700 5900 4700 5550
Wire Wire Line
	4800 6800 4800 5750
Wire Wire Line
	4800 5750 4850 5750
Wire Wire Line
	4850 5750 4850 5550
Wire Wire Line
	5350 4100 5350 3800
Wire Wire Line
	4700 4100 5350 4100
Wire Wire Line
	4850 4200 5200 4200
Wire Wire Line
	5200 4200 5200 3800
$EndSCHEMATC
