(module "Aurel RTX MID 5v" (layer F.Cu) (tedit 5D68EA2A)
  (fp_text reference REF** (at 10.16 3.81) (layer F.SilkS)
    (effects (font (size 1 1) (thickness 0.15)))
  )
  (fp_text value "Aurel RTX MID 5v" (at -6.35 3.81) (layer F.Fab)
    (effects (font (size 1 1) (thickness 0.15)))
  )
  (fp_line (start 12.7 -1.27) (end -12.7 -1.27) (layer F.SilkS) (width 0.15))
  (fp_line (start -12.7 -1.27) (end -12.7 2.54) (layer F.SilkS) (width 0.15))
  (fp_line (start -12.7 2.54) (end 12.7 2.54) (layer F.SilkS) (width 0.15))
  (fp_line (start 12.7 2.54) (end 12.7 -1.27) (layer F.SilkS) (width 0.15))
  (pad 1 thru_hole circle (at -11.43 0) (size 1.524 1.524) (drill 0.762) (layers *.Cu *.Mask))
  (pad 2 thru_hole circle (at -8.89 0) (size 1.524 1.524) (drill 0.762) (layers *.Cu *.Mask))
  (pad 4 thru_hole circle (at -3.81 0) (size 1.524 1.524) (drill 0.762) (layers *.Cu *.Mask))
  (pad 5 thru_hole circle (at -1.27 0) (size 1.524 1.524) (drill 0.762) (layers *.Cu *.Mask))
  (pad 6 thru_hole circle (at 1.27 0) (size 1.524 1.524) (drill 0.762) (layers *.Cu *.Mask))
  (pad 7 thru_hole circle (at 3.81 0) (size 1.524 1.524) (drill 0.762) (layers *.Cu *.Mask))
  (pad 8 thru_hole circle (at 6.35 0) (size 1.524 1.524) (drill 0.762) (layers *.Cu *.Mask))
  (pad 9 thru_hole circle (at 8.89 0) (size 1.524 1.524) (drill 0.762) (layers *.Cu *.Mask))
  (pad 10 thru_hole circle (at 11.43 0) (size 1.524 1.524) (drill 0.762) (layers *.Cu *.Mask))
)
